<?xml version="1.0" encoding="UTF-8" standalone="no"?>
<!DOCTYPE svg PUBLIC "-//W3C//DTD SVG 1.1//EN"
 "http://www.w3.org/Graphics/SVG/1.1/DTD/svg11.dtd">
<!-- Generated by graphviz version 2.36.0 (20140111.2315)
 -->
<!-- Title: %3 Pages: 1 -->
<svg width="3271pt" height="332pt"
 viewBox="0.00 0.00 3271.00 332.00" xmlns="http://www.w3.org/2000/svg" xmlns:xlink="http://www.w3.org/1999/xlink">
<g id="graph0" class="graph" transform="scale(1 1) rotate(0) translate(4 328)">
<title>%3</title>
<polygon fill="white" stroke="none" points="-4,4 -4,-328 3267,-328 3267,4 -4,4"/>
<!-- Hub -->
<g id="node1" class="node"><title>Hub</title>
<ellipse fill="#f3fff3" stroke="black" cx="477" cy="-162" rx="27" ry="18"/>
<text text-anchor="middle" x="477" y="-158.3" font-family="Helvetica,sans-Serif" font-size="14.00">Hub</text>
</g>
<!-- demand -->
<g id="node2" class="node"><title>demand</title>
<ellipse fill="#f3fff3" stroke="grey" cx="38" cy="-90" rx="38.4949" ry="18"/>
<text text-anchor="middle" x="38" y="-86.3" font-family="Times,serif" font-size="14.00">demand</text>
</g>
<!-- Hub&#45;&gt;demand -->
<g id="edge1" class="edge"><title>Hub&#45;&gt;demand</title>
<path fill="none" stroke="black" stroke-dasharray="5,2" d="M450.099,-159.267C386.182,-154.737 220.489,-140.564 86,-108 79.7411,-106.485 73.1577,-104.455 66.9412,-102.327"/>
<polygon fill="black" stroke="black" points="66.6455,-102.225 66.6455,-102.225 66.6455,-102.225 66.6455,-102.225"/>
</g>
<!-- electricity -->
<g id="node3" class="node"><title>electricity</title>
<ellipse fill="#f3fff3" stroke="grey" cx="141" cy="-90" rx="46.2191" ry="18"/>
<text text-anchor="middle" x="141" y="-86.3" font-family="Times,serif" font-size="14.00">electricity</text>
</g>
<!-- Hub&#45;&gt;electricity -->
<g id="edge2" class="edge"><title>Hub&#45;&gt;electricity</title>
<path fill="none" stroke="black" stroke-dasharray="5,2" d="M450.831,-157.081C400.903,-149.38 288.756,-131.004 196,-108 189.316,-106.342 182.245,-104.345 175.48,-102.312"/>
<polygon fill="black" stroke="black" points="175.158,-102.215 175.158,-102.215 175.158,-102.215 175.158,-102.215"/>
</g>
<!-- excess_bel -->
<g id="node4" class="node"><title>excess_bel</title>
<ellipse fill="#f3fff3" stroke="grey" cx="254" cy="-90" rx="48.6179" ry="18"/>
<text text-anchor="middle" x="254" y="-86.3" font-family="Times,serif" font-size="14.00">excess_bel</text>
</g>
<!-- Hub&#45;&gt;excess_bel -->
<g id="edge3" class="edge"><title>Hub&#45;&gt;excess_bel</title>
<path fill="none" stroke="black" stroke-dasharray="5,2" d="M453.135,-153.509C413.998,-141.224 335.948,-116.724 290.044,-102.314"/>
<polygon fill="black" stroke="black" points="289.775,-102.23 289.775,-102.23 289.775,-102.23 289.775,-102.23"/>
</g>
<!-- natural_gas -->
<g id="node5" class="node"><title>natural_gas</title>
<ellipse fill="#f3fff3" stroke="grey" cx="372" cy="-90" rx="51.0191" ry="18"/>
<text text-anchor="middle" x="372" y="-86.3" font-family="Times,serif" font-size="14.00">natural_gas</text>
</g>
<!-- Hub&#45;&gt;natural_gas -->
<g id="edge4" class="edge"><title>Hub&#45;&gt;natural_gas</title>
<path fill="none" stroke="black" stroke-dasharray="5,2" d="M458.228,-148.485C440.67,-136.78 414.384,-119.256 395.452,-106.635"/>
<polygon fill="black" stroke="black" points="395.006,-106.337 395.006,-106.337 395.006,-106.337 395.006,-106.337"/>
</g>
<!-- pp_gas -->
<g id="node6" class="node"><title>pp_gas</title>
<ellipse fill="#f3fff3" stroke="grey" cx="477" cy="-90" rx="35.6194" ry="18"/>
<text text-anchor="middle" x="477" y="-86.3" font-family="Times,serif" font-size="14.00">pp_gas</text>
</g>
<!-- Hub&#45;&gt;pp_gas -->
<g id="edge5" class="edge"><title>Hub&#45;&gt;pp_gas</title>
<path fill="none" stroke="black" stroke-dasharray="5,2" d="M477,-143.697C477,-132.931 477,-119.134 477,-108.358"/>
<polygon fill="black" stroke="black" points="477,-108.104 477,-108.104 477,-108.104 477,-108.104"/>
</g>
<!-- pv -->
<g id="node7" class="node"><title>pv</title>
<ellipse fill="#f3fff3" stroke="grey" cx="558" cy="-90" rx="27" ry="18"/>
<text text-anchor="middle" x="558" y="-86.3" font-family="Times,serif" font-size="14.00">pv</text>
</g>
<!-- Hub&#45;&gt;pv -->
<g id="edge6" class="edge"><title>Hub&#45;&gt;pv</title>
<path fill="none" stroke="black" stroke-dasharray="5,2" d="M493.003,-147.17C507.092,-134.994 527.518,-117.343 541.696,-105.089"/>
<polygon fill="black" stroke="black" points="542.03,-104.801 542.03,-104.801 542.03,-104.801 542.03,-104.801"/>
</g>
<!-- rgas -->
<g id="node8" class="node"><title>rgas</title>
<ellipse fill="#f3fff3" stroke="grey" cx="630" cy="-90" rx="27" ry="18"/>
<text text-anchor="middle" x="630" y="-86.3" font-family="Times,serif" font-size="14.00">rgas</text>
</g>
<!-- Hub&#45;&gt;rgas -->
<g id="edge7" class="edge"><title>Hub&#45;&gt;rgas</title>
<path fill="none" stroke="black" stroke-dasharray="5,2" d="M499.043,-151.14C522.598,-140.574 561.01,-123.26 594,-108 598.619,-105.864 603.558,-103.55 608.252,-101.338"/>
<polygon fill="black" stroke="black" points="608.706,-101.124 608.706,-101.124 608.706,-101.124 608.706,-101.124"/>
</g>
<!-- wind -->
<g id="node9" class="node"><title>wind</title>
<ellipse fill="#f3fff3" stroke="grey" cx="704" cy="-90" rx="28.3955" ry="18"/>
<text text-anchor="middle" x="704" y="-86.3" font-family="Times,serif" font-size="14.00">wind</text>
</g>
<!-- Hub&#45;&gt;wind -->
<g id="edge8" class="edge"><title>Hub&#45;&gt;wind</title>
<path fill="none" stroke="black" stroke-dasharray="5,2" d="M502.135,-155.204C538.7,-146.491 608.476,-128.805 666,-108 671.136,-106.143 676.55,-103.901 681.632,-101.663"/>
<polygon fill="black" stroke="black" points="682.122,-101.446 682.122,-101.446 682.122,-101.446 682.122,-101.446"/>
</g>
<!-- electricity_3 -->
<g id="node23" class="node"><title>electricity_3</title>
<ellipse fill="#f3fff3" stroke="grey" cx="944" cy="-18" rx="54.3924" ry="18"/>
<text text-anchor="middle" x="944" y="-14.3" font-family="Times,serif" font-size="14.00">electricity_3</text>
</g>
<!-- electricity&#45;&gt;electricity_3 -->
<g id="edge39" class="edge"><title>electricity&#45;&gt;electricity_3</title>
<path fill="none" stroke="grey" d="M184.023,-74.6821C188.042,-73.6541 192.078,-72.7349 196,-72 445.482,-25.2457 748.82,-18.9658 879.271,-18.6287"/>
<polygon fill="grey" stroke="grey" points="182.844,-71.3768 174.141,-77.4188 184.712,-78.1229 182.844,-71.3768"/>
<polygon fill="grey" stroke="grey" points="889.485,-18.6137 879.491,-23.1285 884.485,-18.6211 879.485,-18.6285 879.485,-18.6285 879.485,-18.6285 884.485,-18.6211 879.478,-14.1285 889.485,-18.6137 889.485,-18.6137"/>
</g>
<!-- District -->
<g id="node10" class="node"><title>District</title>
<polygon fill="#f3fff3" stroke="black" points="1290.29,-234 1268.65,-252 1225.35,-252 1203.71,-234 1225.35,-216 1268.65,-216 1290.29,-234"/>
<text text-anchor="middle" x="1247" y="-230.3" font-family="Helvetica,sans-Serif" font-size="14.00">District</text>
</g>
<!-- District&#45;&gt;Hub -->
<g id="edge9" class="edge"><title>District&#45;&gt;Hub</title>
<path fill="none" stroke="black" stroke-dasharray="5,2" d="M1208.82,-229.529C1073.61,-217.237 619.506,-175.955 503.937,-165.449"/>
<polygon fill="black" stroke="black" points="503.599,-165.418 503.599,-165.418 503.599,-165.418 503.599,-165.418"/>
</g>
<!-- Hub_2 -->
<g id="node11" class="node"><title>Hub_2</title>
<ellipse fill="#f3fff3" stroke="black" cx="1247" cy="-162" rx="36.096" ry="18"/>
<text text-anchor="middle" x="1247" y="-158.3" font-family="Helvetica,sans-Serif" font-size="14.00">Hub_2</text>
</g>
<!-- District&#45;&gt;Hub_2 -->
<g id="edge10" class="edge"><title>District&#45;&gt;Hub_2</title>
<path fill="none" stroke="black" stroke-dasharray="5,2" d="M1247,-215.697C1247,-204.931 1247,-191.134 1247,-180.358"/>
<polygon fill="black" stroke="black" points="1247,-180.104 1247,-180.104 1247,-180.104 1247,-180.104"/>
</g>
<!-- demand_2 -->
<g id="node12" class="node"><title>demand_2</title>
<ellipse fill="#f3fff3" stroke="grey" cx="799" cy="-90" rx="48.1437" ry="18"/>
<text text-anchor="middle" x="799" y="-86.3" font-family="Times,serif" font-size="14.00">demand_2</text>
</g>
<!-- Hub_2&#45;&gt;demand_2 -->
<g id="edge11" class="edge"><title>Hub_2&#45;&gt;demand_2</title>
<path fill="none" stroke="black" stroke-dasharray="5,2" d="M1211.63,-158.059C1142.66,-151.917 985.577,-135.928 856,-108 848.945,-106.479 841.493,-104.522 834.388,-102.48"/>
<polygon fill="black" stroke="black" points="834.05,-102.382 834.05,-102.382 834.05,-102.382 834.05,-102.382"/>
</g>
<!-- electricity_2 -->
<g id="node13" class="node"><title>electricity_2</title>
<ellipse fill="#f3fff3" stroke="grey" cx="920" cy="-90" rx="54.3924" ry="18"/>
<text text-anchor="middle" x="920" y="-86.3" font-family="Times,serif" font-size="14.00">electricity_2</text>
</g>
<!-- Hub_2&#45;&gt;electricity_2 -->
<g id="edge12" class="edge"><title>Hub_2&#45;&gt;electricity_2</title>
<path fill="none" stroke="black" stroke-dasharray="5,2" d="M1213.51,-155.003C1163.23,-145.838 1065.37,-127.36 983,-108 975.727,-106.29 968.019,-104.333 960.585,-102.37"/>
<polygon fill="black" stroke="black" points="960.231,-102.276 960.231,-102.276 960.231,-102.276 960.231,-102.276"/>
</g>
<!-- excess_bel_2 -->
<g id="node14" class="node"><title>excess_bel_2</title>
<ellipse fill="#f3fff3" stroke="grey" cx="1050" cy="-90" rx="57.2688" ry="18"/>
<text text-anchor="middle" x="1050" y="-86.3" font-family="Times,serif" font-size="14.00">excess_bel_2</text>
</g>
<!-- Hub_2&#45;&gt;excess_bel_2 -->
<g id="edge13" class="edge"><title>Hub_2&#45;&gt;excess_bel_2</title>
<path fill="none" stroke="black" stroke-dasharray="5,2" d="M1218.35,-150.821C1183.6,-138.47 1124.93,-117.623 1086.84,-104.089"/>
<polygon fill="black" stroke="black" points="1086.39,-103.93 1086.39,-103.93 1086.39,-103.93 1086.39,-103.93"/>
</g>
<!-- natural_gas_2 -->
<g id="node15" class="node"><title>natural_gas_2</title>
<ellipse fill="#f3fff3" stroke="grey" cx="1186" cy="-90" rx="59.1941" ry="18"/>
<text text-anchor="middle" x="1186" y="-86.3" font-family="Times,serif" font-size="14.00">natural_gas_2</text>
</g>
<!-- Hub_2&#45;&gt;natural_gas_2 -->
<g id="edge14" class="edge"><title>Hub_2&#45;&gt;natural_gas_2</title>
<path fill="none" stroke="black" stroke-dasharray="5,2" d="M1233.16,-145.116C1223.53,-134.07 1210.71,-119.359 1200.87,-108.064"/>
<polygon fill="black" stroke="black" points="1200.64,-107.797 1200.64,-107.797 1200.64,-107.797 1200.64,-107.797"/>
</g>
<!-- pp_gas_2 -->
<g id="node16" class="node"><title>pp_gas_2</title>
<ellipse fill="#f3fff3" stroke="grey" cx="1308" cy="-90" rx="44.2946" ry="18"/>
<text text-anchor="middle" x="1308" y="-86.3" font-family="Times,serif" font-size="14.00">pp_gas_2</text>
</g>
<!-- Hub_2&#45;&gt;pp_gas_2 -->
<g id="edge15" class="edge"><title>Hub_2&#45;&gt;pp_gas_2</title>
<path fill="none" stroke="black" stroke-dasharray="5,2" d="M1260.84,-145.116C1270.61,-133.91 1283.66,-118.932 1293.56,-107.575"/>
<polygon fill="black" stroke="black" points="1293.79,-107.307 1293.79,-107.307 1293.79,-107.307 1293.79,-107.307"/>
</g>
<!-- pv_2 -->
<g id="node17" class="node"><title>pv_2</title>
<ellipse fill="#f3fff3" stroke="grey" cx="1399" cy="-90" rx="28.3955" ry="18"/>
<text text-anchor="middle" x="1399" y="-86.3" font-family="Times,serif" font-size="14.00">pv_2</text>
</g>
<!-- Hub_2&#45;&gt;pv_2 -->
<g id="edge16" class="edge"><title>Hub_2&#45;&gt;pv_2</title>
<path fill="none" stroke="black" stroke-dasharray="5,2" d="M1272.78,-149.125C1301.81,-135.76 1348.51,-114.25 1376.24,-101.483"/>
<polygon fill="black" stroke="black" points="1376.56,-101.333 1376.56,-101.333 1376.56,-101.333 1376.56,-101.333"/>
</g>
<!-- rgas_2 -->
<g id="node18" class="node"><title>rgas_2</title>
<ellipse fill="#f3fff3" stroke="grey" cx="1480" cy="-90" rx="34.1708" ry="18"/>
<text text-anchor="middle" x="1480" y="-86.3" font-family="Times,serif" font-size="14.00">rgas_2</text>
</g>
<!-- Hub_2&#45;&gt;rgas_2 -->
<g id="edge17" class="edge"><title>Hub_2&#45;&gt;rgas_2</title>
<path fill="none" stroke="black" stroke-dasharray="5,2" d="M1278.71,-153.094C1316.49,-143.45 1381.35,-126.174 1436,-108 1441.66,-106.118 1447.66,-103.93 1453.35,-101.763"/>
<polygon fill="black" stroke="black" points="1453.62,-101.66 1453.62,-101.66 1453.62,-101.66 1453.62,-101.66"/>
</g>
<!-- wind_2 -->
<g id="node19" class="node"><title>wind_2</title>
<ellipse fill="#f3fff3" stroke="grey" cx="1569" cy="-90" rx="37.0701" ry="18"/>
<text text-anchor="middle" x="1569" y="-86.3" font-family="Times,serif" font-size="14.00">wind_2</text>
</g>
<!-- Hub_2&#45;&gt;wind_2 -->
<g id="edge18" class="edge"><title>Hub_2&#45;&gt;wind_2</title>
<path fill="none" stroke="black" stroke-dasharray="5,2" d="M1281.41,-156.252C1334.05,-148.573 1437.46,-131.845 1523,-108 1528.81,-106.38 1534.93,-104.353 1540.74,-102.27"/>
<polygon fill="black" stroke="black" points="1541.02,-102.171 1541.02,-102.171 1541.02,-102.171 1541.02,-102.171"/>
</g>
<!-- City -->
<g id="node20" class="node"><title>City</title>
<polygon fill="#f3fff3" stroke="black" points="1699.03,-306 1684.01,-324 1653.99,-324 1638.97,-306 1653.99,-288 1684.01,-288 1699.03,-306"/>
<text text-anchor="middle" x="1669" y="-302.3" font-family="Helvetica,sans-Serif" font-size="14.00">City</text>
</g>
<!-- City&#45;&gt;District -->
<g id="edge19" class="edge"><title>City&#45;&gt;District</title>
<path fill="none" stroke="black" stroke-dasharray="5,2" d="M1643.24,-300.727C1570.9,-288.728 1365.82,-254.71 1282.67,-240.917"/>
<polygon fill="black" stroke="black" points="1282.19,-240.837 1282.19,-240.837 1282.19,-240.837 1282.19,-240.837"/>
</g>
<!-- District_2 -->
<g id="node39" class="node"><title>District_2</title>
<polygon fill="#f3fff3" stroke="black" points="2085.18,-234 2058.09,-252 2003.91,-252 1976.82,-234 2003.91,-216 2058.09,-216 2085.18,-234"/>
<text text-anchor="middle" x="2031" y="-230.3" font-family="Helvetica,sans-Serif" font-size="14.00">District_2</text>
</g>
<!-- City&#45;&gt;District_2 -->
<g id="edge20" class="edge"><title>City&#45;&gt;District_2</title>
<path fill="none" stroke="black" stroke-dasharray="5,2" d="M1694.17,-300.133C1755.62,-288.251 1913.8,-257.663 1989.47,-243.03"/>
<polygon fill="black" stroke="black" points="1989.91,-242.945 1989.91,-242.945 1989.91,-242.945 1989.91,-242.945"/>
</g>
<!-- Hub_3 -->
<g id="node21" class="node"><title>Hub_3</title>
<ellipse fill="#f3fff3" stroke="black" cx="2031" cy="-162" rx="36.096" ry="18"/>
<text text-anchor="middle" x="2031" y="-158.3" font-family="Helvetica,sans-Serif" font-size="14.00">Hub_3</text>
</g>
<!-- demand_3 -->
<g id="node22" class="node"><title>demand_3</title>
<ellipse fill="#f3fff3" stroke="grey" cx="1672" cy="-90" rx="48.1437" ry="18"/>
<text text-anchor="middle" x="1672" y="-86.3" font-family="Times,serif" font-size="14.00">demand_3</text>
</g>
<!-- Hub_3&#45;&gt;demand_3 -->
<g id="edge21" class="edge"><title>Hub_3&#45;&gt;demand_3</title>
<path fill="none" stroke="black" stroke-dasharray="5,2" d="M1996.5,-155.888C1940.92,-147.42 1828.26,-129.287 1734,-108 1725.96,-106.185 1717.4,-104.003 1709.29,-101.816"/>
<polygon fill="black" stroke="black" points="1708.91,-101.712 1708.91,-101.712 1708.91,-101.712 1708.91,-101.712"/>
</g>
<!-- Hub_3&#45;&gt;electricity_3 -->
<g id="edge22" class="edge"><title>Hub_3&#45;&gt;electricity_3</title>
<path fill="none" stroke="black" stroke-dasharray="5,2" d="M1994.76,-159.999C1941.87,-157.196 1841.71,-146.726 1767,-108 1746.35,-97.2931 1750.31,-81.3352 1729,-72 1662.52,-42.8761 1165.33,-25.5789 998.437,-20.5456"/>
<polygon fill="black" stroke="black" points="997.949,-20.5309 997.949,-20.5309 997.949,-20.5309 997.949,-20.5309"/>
</g>
<!-- excess_bel_3 -->
<g id="node24" class="node"><title>excess_bel_3</title>
<ellipse fill="#f3fff3" stroke="grey" cx="1834" cy="-90" rx="57.2688" ry="18"/>
<text text-anchor="middle" x="1834" y="-86.3" font-family="Times,serif" font-size="14.00">excess_bel_3</text>
</g>
<!-- Hub_3&#45;&gt;excess_bel_3 -->
<g id="edge23" class="edge"><title>Hub_3&#45;&gt;excess_bel_3</title>
<path fill="none" stroke="black" stroke-dasharray="5,2" d="M2002.35,-150.821C1967.6,-138.47 1908.93,-117.623 1870.84,-104.089"/>
<polygon fill="black" stroke="black" points="1870.39,-103.93 1870.39,-103.93 1870.39,-103.93 1870.39,-103.93"/>
</g>
<!-- natural_gas_3 -->
<g id="node25" class="node"><title>natural_gas_3</title>
<ellipse fill="#f3fff3" stroke="grey" cx="1970" cy="-90" rx="59.1941" ry="18"/>
<text text-anchor="middle" x="1970" y="-86.3" font-family="Times,serif" font-size="14.00">natural_gas_3</text>
</g>
<!-- Hub_3&#45;&gt;natural_gas_3 -->
<g id="edge24" class="edge"><title>Hub_3&#45;&gt;natural_gas_3</title>
<path fill="none" stroke="black" stroke-dasharray="5,2" d="M2017.16,-145.116C2007.53,-134.07 1994.71,-119.359 1984.87,-108.064"/>
<polygon fill="black" stroke="black" points="1984.64,-107.797 1984.64,-107.797 1984.64,-107.797 1984.64,-107.797"/>
</g>
<!-- pp_gas_3 -->
<g id="node26" class="node"><title>pp_gas_3</title>
<ellipse fill="#f3fff3" stroke="grey" cx="2092" cy="-90" rx="44.2946" ry="18"/>
<text text-anchor="middle" x="2092" y="-86.3" font-family="Times,serif" font-size="14.00">pp_gas_3</text>
</g>
<!-- Hub_3&#45;&gt;pp_gas_3 -->
<g id="edge25" class="edge"><title>Hub_3&#45;&gt;pp_gas_3</title>
<path fill="none" stroke="black" stroke-dasharray="5,2" d="M2044.84,-145.116C2054.61,-133.91 2067.66,-118.932 2077.56,-107.575"/>
<polygon fill="black" stroke="black" points="2077.79,-107.307 2077.79,-107.307 2077.79,-107.307 2077.79,-107.307"/>
</g>
<!-- pv_3 -->
<g id="node27" class="node"><title>pv_3</title>
<ellipse fill="#f3fff3" stroke="grey" cx="2183" cy="-90" rx="28.3955" ry="18"/>
<text text-anchor="middle" x="2183" y="-86.3" font-family="Times,serif" font-size="14.00">pv_3</text>
</g>
<!-- Hub_3&#45;&gt;pv_3 -->
<g id="edge26" class="edge"><title>Hub_3&#45;&gt;pv_3</title>
<path fill="none" stroke="black" stroke-dasharray="5,2" d="M2056.78,-149.125C2085.81,-135.76 2132.51,-114.25 2160.24,-101.483"/>
<polygon fill="black" stroke="black" points="2160.56,-101.333 2160.56,-101.333 2160.56,-101.333 2160.56,-101.333"/>
</g>
<!-- rgas_3 -->
<g id="node28" class="node"><title>rgas_3</title>
<ellipse fill="#f3fff3" stroke="grey" cx="2264" cy="-90" rx="34.1708" ry="18"/>
<text text-anchor="middle" x="2264" y="-86.3" font-family="Times,serif" font-size="14.00">rgas_3</text>
</g>
<!-- Hub_3&#45;&gt;rgas_3 -->
<g id="edge27" class="edge"><title>Hub_3&#45;&gt;rgas_3</title>
<path fill="none" stroke="black" stroke-dasharray="5,2" d="M2062.71,-153.094C2100.49,-143.45 2165.35,-126.174 2220,-108 2225.66,-106.118 2231.66,-103.93 2237.35,-101.763"/>
<polygon fill="black" stroke="black" points="2237.62,-101.66 2237.62,-101.66 2237.62,-101.66 2237.62,-101.66"/>
</g>
<!-- wind_3 -->
<g id="node29" class="node"><title>wind_3</title>
<ellipse fill="#f3fff3" stroke="grey" cx="2353" cy="-90" rx="37.0701" ry="18"/>
<text text-anchor="middle" x="2353" y="-86.3" font-family="Times,serif" font-size="14.00">wind_3</text>
</g>
<!-- Hub_3&#45;&gt;wind_3 -->
<g id="edge28" class="edge"><title>Hub_3&#45;&gt;wind_3</title>
<path fill="none" stroke="black" stroke-dasharray="5,2" d="M2065.41,-156.252C2118.05,-148.573 2221.46,-131.845 2307,-108 2312.81,-106.38 2318.93,-104.353 2324.74,-102.27"/>
<polygon fill="black" stroke="black" points="2325.02,-102.171 2325.02,-102.171 2325.02,-102.171 2325.02,-102.171"/>
</g>
<!-- Hub_4 -->
<g id="node30" class="node"><title>Hub_4</title>
<ellipse fill="#f3fff3" stroke="black" cx="2843" cy="-162" rx="36.096" ry="18"/>
<text text-anchor="middle" x="2843" y="-158.3" font-family="Helvetica,sans-Serif" font-size="14.00">Hub_4</text>
</g>
<!-- demand_4 -->
<g id="node31" class="node"><title>demand_4</title>
<ellipse fill="#f3fff3" stroke="grey" cx="2456" cy="-90" rx="48.1437" ry="18"/>
<text text-anchor="middle" x="2456" y="-86.3" font-family="Times,serif" font-size="14.00">demand_4</text>
</g>
<!-- Hub_4&#45;&gt;demand_4 -->
<g id="edge29" class="edge"><title>Hub_4&#45;&gt;demand_4</title>
<path fill="none" stroke="black" stroke-dasharray="5,2" d="M2808.03,-156.91C2747.47,-149.487 2619.35,-132.29 2513,-108 2506.06,-106.416 2498.73,-104.452 2491.72,-102.429"/>
<polygon fill="black" stroke="black" points="2491.38,-102.333 2491.38,-102.333 2491.38,-102.333 2491.38,-102.333"/>
</g>
<!-- electricity_4 -->
<g id="node32" class="node"><title>electricity_4</title>
<ellipse fill="#f3fff3" stroke="grey" cx="2577" cy="-90" rx="54.3924" ry="18"/>
<text text-anchor="middle" x="2577" y="-86.3" font-family="Times,serif" font-size="14.00">electricity_4</text>
</g>
<!-- Hub_4&#45;&gt;electricity_4 -->
<g id="edge30" class="edge"><title>Hub_4&#45;&gt;electricity_4</title>
<path fill="none" stroke="black" stroke-dasharray="5,2" d="M2811.68,-152.908C2771.79,-142.581 2700.73,-124.121 2640,-108 2632.89,-106.112 2625.33,-104.087 2618,-102.116"/>
<polygon fill="black" stroke="black" points="2617.65,-102.023 2617.65,-102.023 2617.65,-102.023 2617.65,-102.023"/>
</g>
<!-- excess_bel_4 -->
<g id="node33" class="node"><title>excess_bel_4</title>
<ellipse fill="#f3fff3" stroke="grey" cx="2707" cy="-90" rx="57.2688" ry="18"/>
<text text-anchor="middle" x="2707" y="-86.3" font-family="Times,serif" font-size="14.00">excess_bel_4</text>
</g>
<!-- Hub_4&#45;&gt;excess_bel_4 -->
<g id="edge31" class="edge"><title>Hub_4&#45;&gt;excess_bel_4</title>
<path fill="none" stroke="black" stroke-dasharray="5,2" d="M2818.69,-148.485C2795.55,-136.577 2760.71,-118.647 2736.11,-105.983"/>
<polygon fill="black" stroke="black" points="2735.82,-105.834 2735.82,-105.834 2735.82,-105.834 2735.82,-105.834"/>
</g>
<!-- natural_gas_4 -->
<g id="node34" class="node"><title>natural_gas_4</title>
<ellipse fill="#f3fff3" stroke="grey" cx="2843" cy="-90" rx="59.1941" ry="18"/>
<text text-anchor="middle" x="2843" y="-86.3" font-family="Times,serif" font-size="14.00">natural_gas_4</text>
</g>
<!-- Hub_4&#45;&gt;natural_gas_4 -->
<g id="edge32" class="edge"><title>Hub_4&#45;&gt;natural_gas_4</title>
<path fill="none" stroke="black" stroke-dasharray="5,2" d="M2843,-143.697C2843,-132.931 2843,-119.134 2843,-108.358"/>
<polygon fill="black" stroke="black" points="2843,-108.104 2843,-108.104 2843,-108.104 2843,-108.104"/>
</g>
<!-- pp_gas_4 -->
<g id="node35" class="node"><title>pp_gas_4</title>
<ellipse fill="#f3fff3" stroke="grey" cx="2965" cy="-90" rx="44.2946" ry="18"/>
<text text-anchor="middle" x="2965" y="-86.3" font-family="Times,serif" font-size="14.00">pp_gas_4</text>
</g>
<!-- Hub_4&#45;&gt;pp_gas_4 -->
<g id="edge33" class="edge"><title>Hub_4&#45;&gt;pp_gas_4</title>
<path fill="none" stroke="black" stroke-dasharray="5,2" d="M2865.95,-147.834C2887.12,-135.683 2918.49,-117.688 2940.23,-105.215"/>
<polygon fill="black" stroke="black" points="2940.48,-105.068 2940.48,-105.068 2940.48,-105.068 2940.48,-105.068"/>
</g>
<!-- pv_4 -->
<g id="node36" class="node"><title>pv_4</title>
<ellipse fill="#f3fff3" stroke="grey" cx="3056" cy="-90" rx="28.3955" ry="18"/>
<text text-anchor="middle" x="3056" y="-86.3" font-family="Times,serif" font-size="14.00">pv_4</text>
</g>
<!-- Hub_4&#45;&gt;pv_4 -->
<g id="edge34" class="edge"><title>Hub_4&#45;&gt;pv_4</title>
<path fill="none" stroke="black" stroke-dasharray="5,2" d="M2874.38,-152.789C2909.71,-143.246 2968.63,-126.434 3018,-108 3022.98,-106.139 3028.25,-103.942 3033.21,-101.756"/>
<polygon fill="black" stroke="black" points="3033.69,-101.545 3033.69,-101.545 3033.69,-101.545 3033.69,-101.545"/>
</g>
<!-- rgas_4 -->
<g id="node37" class="node"><title>rgas_4</title>
<ellipse fill="#f3fff3" stroke="grey" cx="3137" cy="-90" rx="34.1708" ry="18"/>
<text text-anchor="middle" x="3137" y="-86.3" font-family="Times,serif" font-size="14.00">rgas_4</text>
</g>
<!-- Hub_4&#45;&gt;rgas_4 -->
<g id="edge35" class="edge"><title>Hub_4&#45;&gt;rgas_4</title>
<path fill="none" stroke="black" stroke-dasharray="5,2" d="M2876.99,-155.57C2925.49,-147.424 3017.08,-130.555 3093,-108 3098.72,-106.301 3104.74,-104.193 3110.44,-102.045"/>
<polygon fill="black" stroke="black" points="3110.71,-101.943 3110.71,-101.943 3110.71,-101.943 3110.71,-101.943"/>
</g>
<!-- wind_4 -->
<g id="node38" class="node"><title>wind_4</title>
<ellipse fill="#f3fff3" stroke="grey" cx="3226" cy="-90" rx="37.0701" ry="18"/>
<text text-anchor="middle" x="3226" y="-86.3" font-family="Times,serif" font-size="14.00">wind_4</text>
</g>
<!-- Hub_4&#45;&gt;wind_4 -->
<g id="edge36" class="edge"><title>Hub_4&#45;&gt;wind_4</title>
<path fill="none" stroke="black" stroke-dasharray="5,2" d="M2878.4,-157.762C2940.32,-151.586 3071.97,-136.16 3180,-108 3186,-106.436 3192.31,-104.385 3198.27,-102.252"/>
<polygon fill="black" stroke="black" points="3198.55,-102.15 3198.55,-102.15 3198.55,-102.15 3198.55,-102.15"/>
</g>
<!-- District_2&#45;&gt;Hub_3 -->
<g id="edge37" class="edge"><title>District_2&#45;&gt;Hub_3</title>
<path fill="none" stroke="black" stroke-dasharray="5,2" d="M2031,-215.697C2031,-204.931 2031,-191.134 2031,-180.358"/>
<polygon fill="black" stroke="black" points="2031,-180.104 2031,-180.104 2031,-180.104 2031,-180.104"/>
</g>
<!-- District_2&#45;&gt;Hub_4 -->
<g id="edge38" class="edge"><title>District_2&#45;&gt;Hub_4</title>
<path fill="none" stroke="black" stroke-dasharray="5,2" d="M2077.87,-228.96C2225.15,-216.263 2676.58,-177.347 2807.23,-166.084"/>
<polygon fill="black" stroke="black" points="2807.61,-166.051 2807.61,-166.051 2807.61,-166.051 2807.61,-166.051"/>
</g>
</g>
</svg>
