<?xml version="1.0" encoding="UTF-8" standalone="no"?>
<!DOCTYPE svg PUBLIC "-//W3C//DTD SVG 1.1//EN"
 "http://www.w3.org/Graphics/SVG/1.1/DTD/svg11.dtd">
<!-- Generated by graphviz version 2.36.0 (20140111.2315)
 -->
<!-- Title: %3 Pages: 1 -->
<svg width="7520pt" height="476pt"
 viewBox="0.00 0.00 7520.00 476.00" xmlns="http://www.w3.org/2000/svg" xmlns:xlink="http://www.w3.org/1999/xlink">
<g id="graph0" class="graph" transform="scale(1 1) rotate(0) translate(4 472)">
<title>%3</title>
<polygon fill="white" stroke="none" points="-4,4 -4,-472 7516,-472 7516,4 -4,4"/>
<!-- Hub -->
<g id="node1" class="node"><title>Hub</title>
<ellipse fill="#f3fff3" stroke="black" cx="518" cy="-234" rx="27" ry="18"/>
<text text-anchor="middle" x="518" y="-230.3" font-family="Helvetica,sans-Serif" font-size="14.00">Hub</text>
</g>
<!-- demand -->
<g id="node2" class="node"><title>demand</title>
<ellipse fill="#f3fff3" stroke="grey" cx="38" cy="-162" rx="38.4949" ry="18"/>
<text text-anchor="middle" x="38" y="-158.3" font-family="Times,serif" font-size="14.00">demand</text>
</g>
<!-- Hub&#45;&gt;demand -->
<g id="edge1" class="edge"><title>Hub&#45;&gt;demand</title>
<path fill="none" stroke="black" stroke-dasharray="5,2" d="M491.098,-231.741C422.642,-228.1 236.596,-215.456 86,-180 79.6469,-178.504 72.966,-176.457 66.6748,-174.302"/>
<polygon fill="black" stroke="black" points="66.3755,-174.199 66.3755,-174.199 66.3755,-174.199 66.3755,-174.199"/>
</g>
<!-- electricity -->
<g id="node3" class="node"><title>electricity</title>
<ellipse fill="#f3fff3" stroke="grey" cx="141" cy="-162" rx="46.2191" ry="18"/>
<text text-anchor="middle" x="141" y="-158.3" font-family="Times,serif" font-size="14.00">electricity</text>
</g>
<!-- Hub&#45;&gt;electricity -->
<g id="edge2" class="edge"><title>Hub&#45;&gt;electricity</title>
<path fill="none" stroke="black" stroke-dasharray="5,2" d="M491.463,-229.88C436.084,-223.097 304.358,-205.538 196,-180 189.201,-178.398 182.015,-176.403 175.16,-174.35"/>
<polygon fill="black" stroke="black" points="174.834,-174.252 174.834,-174.252 174.834,-174.252 174.834,-174.252"/>
</g>
<!-- excess_bel -->
<g id="node4" class="node"><title>excess_bel</title>
<ellipse fill="#f3fff3" stroke="grey" cx="254" cy="-162" rx="48.6179" ry="18"/>
<text text-anchor="middle" x="254" y="-158.3" font-family="Times,serif" font-size="14.00">excess_bel</text>
</g>
<!-- Hub&#45;&gt;excess_bel -->
<g id="edge3" class="edge"><title>Hub&#45;&gt;excess_bel</title>
<path fill="none" stroke="black" stroke-dasharray="5,2" d="M492.877,-226.823C454.005,-217.2 376.98,-197.877 312,-180 305.128,-178.11 297.82,-176.025 290.791,-173.984"/>
<polygon fill="black" stroke="black" points="290.456,-173.886 290.456,-173.886 290.456,-173.886 290.456,-173.886"/>
</g>
<!-- natural_gas -->
<g id="node5" class="node"><title>natural_gas</title>
<ellipse fill="#f3fff3" stroke="grey" cx="372" cy="-162" rx="51.0191" ry="18"/>
<text text-anchor="middle" x="372" y="-158.3" font-family="Times,serif" font-size="14.00">natural_gas</text>
</g>
<!-- Hub&#45;&gt;natural_gas -->
<g id="edge4" class="edge"><title>Hub&#45;&gt;natural_gas</title>
<path fill="none" stroke="black" stroke-dasharray="5,2" d="M496.77,-222.821C471.64,-210.773 429.645,-190.638 401.398,-177.095"/>
<polygon fill="black" stroke="black" points="401.067,-176.936 401.067,-176.936 401.067,-176.936 401.067,-176.936"/>
</g>
<!-- pp_gas -->
<g id="node6" class="node"><title>pp_gas</title>
<ellipse fill="#f3fff3" stroke="grey" cx="477" cy="-162" rx="35.6194" ry="18"/>
<text text-anchor="middle" x="477" y="-158.3" font-family="Times,serif" font-size="14.00">pp_gas</text>
</g>
<!-- Hub&#45;&gt;pp_gas -->
<g id="edge5" class="edge"><title>Hub&#45;&gt;pp_gas</title>
<path fill="none" stroke="black" stroke-dasharray="5,2" d="M508.491,-216.765C502.013,-205.705 493.456,-191.095 486.897,-179.897"/>
<polygon fill="black" stroke="black" points="486.742,-179.633 486.742,-179.633 486.742,-179.633 486.742,-179.633"/>
</g>
<!-- pv -->
<g id="node7" class="node"><title>pv</title>
<ellipse fill="#f3fff3" stroke="grey" cx="558" cy="-162" rx="27" ry="18"/>
<text text-anchor="middle" x="558" y="-158.3" font-family="Times,serif" font-size="14.00">pv</text>
</g>
<!-- Hub&#45;&gt;pv -->
<g id="edge6" class="edge"><title>Hub&#45;&gt;pv</title>
<path fill="none" stroke="black" stroke-dasharray="5,2" d="M527.277,-216.765C533.689,-205.544 542.188,-190.671 548.621,-179.413"/>
<polygon fill="black" stroke="black" points="548.773,-179.147 548.773,-179.147 548.773,-179.147 548.773,-179.147"/>
</g>
<!-- rgas -->
<g id="node8" class="node"><title>rgas</title>
<ellipse fill="#f3fff3" stroke="grey" cx="630" cy="-162" rx="27" ry="18"/>
<text text-anchor="middle" x="630" y="-158.3" font-family="Times,serif" font-size="14.00">rgas</text>
</g>
<!-- Hub&#45;&gt;rgas -->
<g id="edge7" class="edge"><title>Hub&#45;&gt;rgas</title>
<path fill="none" stroke="black" stroke-dasharray="5,2" d="M536.999,-221.125C557.434,-208.354 589.766,-188.146 610.422,-175.236"/>
<polygon fill="black" stroke="black" points="610.908,-174.933 610.908,-174.933 610.908,-174.933 610.908,-174.933"/>
</g>
<!-- storage -->
<g id="node9" class="node"><title>storage</title>
<ellipse fill="#f3fff3" stroke="grey" cx="711" cy="-162" rx="36.096" ry="18"/>
<text text-anchor="middle" x="711" y="-158.3" font-family="Times,serif" font-size="14.00">storage</text>
</g>
<!-- Hub&#45;&gt;storage -->
<g id="edge8" class="edge"><title>Hub&#45;&gt;storage</title>
<path fill="none" stroke="black" stroke-dasharray="5,2" d="M541.372,-224.771C570.579,-214.455 622.072,-196.161 666,-180 671.401,-178.013 677.154,-175.864 682.68,-173.784"/>
<polygon fill="black" stroke="black" points="682.942,-173.685 682.942,-173.685 682.942,-173.685 682.942,-173.685"/>
</g>
<!-- wind -->
<g id="node10" class="node"><title>wind</title>
<ellipse fill="#f3fff3" stroke="grey" cx="794" cy="-162" rx="28.3955" ry="18"/>
<text text-anchor="middle" x="794" y="-158.3" font-family="Times,serif" font-size="14.00">wind</text>
</g>
<!-- Hub&#45;&gt;wind -->
<g id="edge9" class="edge"><title>Hub&#45;&gt;wind</title>
<path fill="none" stroke="black" stroke-dasharray="5,2" d="M544.173,-228.95C588.499,-221.699 680.856,-204.893 756,-180 761.184,-178.283 766.619,-176.098 771.704,-173.872"/>
<polygon fill="black" stroke="black" points="772.195,-173.656 772.195,-173.656 772.195,-173.656 772.195,-173.656"/>
</g>
<!-- electricity_2 -->
<g id="node14" class="node"><title>electricity_2</title>
<ellipse fill="#f3fff3" stroke="grey" cx="965" cy="-90" rx="54.3924" ry="18"/>
<text text-anchor="middle" x="965" y="-86.3" font-family="Times,serif" font-size="14.00">electricity_2</text>
</g>
<!-- electricity&#45;&gt;electricity_2 -->
<g id="edge88" class="edge"><title>electricity&#45;&gt;electricity_2</title>
<path fill="none" stroke="grey" d="M184.021,-146.674C188.041,-145.648 192.078,-144.731 196,-144 453.716,-95.9593 767.311,-90.4072 900.356,-90.4483"/>
<polygon fill="grey" stroke="grey" points="182.843,-143.368 174.139,-149.408 184.71,-150.115 182.843,-143.368"/>
<polygon fill="grey" stroke="grey" points="910.382,-90.4622 900.376,-94.9482 905.382,-90.4552 900.382,-90.4482 900.382,-90.4482 900.382,-90.4482 905.382,-90.4552 900.389,-85.9482 910.382,-90.4622 910.382,-90.4622"/>
</g>
<!-- District -->
<g id="node11" class="node"><title>District</title>
<polygon fill="#f3fff3" stroke="black" points="1352.29,-306 1330.65,-324 1287.35,-324 1265.71,-306 1287.35,-288 1330.65,-288 1352.29,-306"/>
<text text-anchor="middle" x="1309" y="-302.3" font-family="Helvetica,sans-Serif" font-size="14.00">District</text>
</g>
<!-- District&#45;&gt;Hub -->
<g id="edge10" class="edge"><title>District&#45;&gt;Hub</title>
<path fill="none" stroke="black" stroke-dasharray="5,2" d="M1270.85,-301.624C1133.04,-289.428 662.913,-247.824 544.995,-237.389"/>
<polygon fill="black" stroke="black" points="544.65,-237.358 544.65,-237.358 544.65,-237.358 544.65,-237.358"/>
</g>
<!-- Hub_2 -->
<g id="node12" class="node"><title>Hub_2</title>
<ellipse fill="#f3fff3" stroke="black" cx="1309" cy="-234" rx="36.096" ry="18"/>
<text text-anchor="middle" x="1309" y="-230.3" font-family="Helvetica,sans-Serif" font-size="14.00">Hub_2</text>
</g>
<!-- District&#45;&gt;Hub_2 -->
<g id="edge11" class="edge"><title>District&#45;&gt;Hub_2</title>
<path fill="none" stroke="black" stroke-dasharray="5,2" d="M1309,-287.697C1309,-276.931 1309,-263.134 1309,-252.358"/>
<polygon fill="black" stroke="black" points="1309,-252.104 1309,-252.104 1309,-252.104 1309,-252.104"/>
</g>
<!-- demand_2 -->
<g id="node13" class="node"><title>demand_2</title>
<ellipse fill="#f3fff3" stroke="grey" cx="889" cy="-162" rx="48.1437" ry="18"/>
<text text-anchor="middle" x="889" y="-158.3" font-family="Times,serif" font-size="14.00">demand_2</text>
</g>
<!-- Hub_2&#45;&gt;demand_2 -->
<g id="edge12" class="edge"><title>Hub_2&#45;&gt;demand_2</title>
<path fill="none" stroke="black" stroke-dasharray="5,2" d="M1273.94,-229.233C1209.55,-222 1068.28,-204.667 951,-180 942.829,-178.281 934.139,-176.116 925.93,-173.91"/>
<polygon fill="black" stroke="black" points="925.54,-173.805 925.54,-173.805 925.54,-173.805 925.54,-173.805"/>
</g>
<!-- Hub_2&#45;&gt;electricity_2 -->
<g id="edge13" class="edge"><title>Hub_2&#45;&gt;electricity_2</title>
<path fill="none" stroke="black" stroke-dasharray="5,2" d="M1272.82,-232.082C1196.99,-229.392 1024.98,-219.035 984,-180 964.703,-161.62 962.586,-128.824 963.388,-108.588"/>
<polygon fill="black" stroke="black" points="963.407,-108.112 963.407,-108.112 963.407,-108.112 963.407,-108.112"/>
</g>
<!-- excess_bel_2 -->
<g id="node15" class="node"><title>excess_bel_2</title>
<ellipse fill="#f3fff3" stroke="grey" cx="1051" cy="-162" rx="57.2688" ry="18"/>
<text text-anchor="middle" x="1051" y="-158.3" font-family="Times,serif" font-size="14.00">excess_bel_2</text>
</g>
<!-- Hub_2&#45;&gt;excess_bel_2 -->
<g id="edge14" class="edge"><title>Hub_2&#45;&gt;excess_bel_2</title>
<path fill="none" stroke="black" stroke-dasharray="5,2" d="M1277.88,-224.556C1231.73,-212.036 1145.04,-188.515 1093.21,-174.453"/>
<polygon fill="black" stroke="black" points="1092.91,-174.37 1092.91,-174.37 1092.91,-174.37 1092.91,-174.37"/>
</g>
<!-- natural_gas_2 -->
<g id="node16" class="node"><title>natural_gas_2</title>
<ellipse fill="#f3fff3" stroke="grey" cx="1187" cy="-162" rx="59.1941" ry="18"/>
<text text-anchor="middle" x="1187" y="-158.3" font-family="Times,serif" font-size="14.00">natural_gas_2</text>
</g>
<!-- Hub_2&#45;&gt;natural_gas_2 -->
<g id="edge15" class="edge"><title>Hub_2&#45;&gt;natural_gas_2</title>
<path fill="none" stroke="black" stroke-dasharray="5,2" d="M1286.05,-219.834C1265.56,-208.078 1235.54,-190.85 1213.92,-178.447"/>
<polygon fill="black" stroke="black" points="1213.67,-178.301 1213.67,-178.301 1213.67,-178.301 1213.67,-178.301"/>
</g>
<!-- pp_gas_2 -->
<g id="node17" class="node"><title>pp_gas_2</title>
<ellipse fill="#f3fff3" stroke="grey" cx="1309" cy="-162" rx="44.2946" ry="18"/>
<text text-anchor="middle" x="1309" y="-158.3" font-family="Times,serif" font-size="14.00">pp_gas_2</text>
</g>
<!-- Hub_2&#45;&gt;pp_gas_2 -->
<g id="edge16" class="edge"><title>Hub_2&#45;&gt;pp_gas_2</title>
<path fill="none" stroke="black" stroke-dasharray="5,2" d="M1309,-215.697C1309,-204.931 1309,-191.134 1309,-180.358"/>
<polygon fill="black" stroke="black" points="1309,-180.104 1309,-180.104 1309,-180.104 1309,-180.104"/>
</g>
<!-- pv_2 -->
<g id="node18" class="node"><title>pv_2</title>
<ellipse fill="#f3fff3" stroke="grey" cx="1400" cy="-162" rx="28.3955" ry="18"/>
<text text-anchor="middle" x="1400" y="-158.3" font-family="Times,serif" font-size="14.00">pv_2</text>
</g>
<!-- Hub_2&#45;&gt;pv_2 -->
<g id="edge17" class="edge"><title>Hub_2&#45;&gt;pv_2</title>
<path fill="none" stroke="black" stroke-dasharray="5,2" d="M1327.86,-218.496C1343.87,-206.179 1366.68,-188.633 1382.34,-176.585"/>
<polygon fill="black" stroke="black" points="1382.71,-176.302 1382.71,-176.302 1382.71,-176.302 1382.71,-176.302"/>
</g>
<!-- rgas_2 -->
<g id="node19" class="node"><title>rgas_2</title>
<ellipse fill="#f3fff3" stroke="grey" cx="1481" cy="-162" rx="34.1708" ry="18"/>
<text text-anchor="middle" x="1481" y="-158.3" font-family="Times,serif" font-size="14.00">rgas_2</text>
</g>
<!-- Hub_2&#45;&gt;rgas_2 -->
<g id="edge18" class="edge"><title>Hub_2&#45;&gt;rgas_2</title>
<path fill="none" stroke="black" stroke-dasharray="5,2" d="M1336.25,-221.908C1368.62,-208.737 1422.24,-186.913 1454.34,-173.849"/>
<polygon fill="black" stroke="black" points="1454.72,-173.695 1454.72,-173.695 1454.72,-173.695 1454.72,-173.695"/>
</g>
<!-- storage_2 -->
<g id="node20" class="node"><title>storage_2</title>
<ellipse fill="#f3fff3" stroke="grey" cx="1578" cy="-162" rx="44.271" ry="18"/>
<text text-anchor="middle" x="1578" y="-158.3" font-family="Times,serif" font-size="14.00">storage_2</text>
</g>
<!-- Hub_2&#45;&gt;storage_2 -->
<g id="edge19" class="edge"><title>Hub_2&#45;&gt;storage_2</title>
<path fill="none" stroke="black" stroke-dasharray="5,2" d="M1341.22,-225.728C1383.41,-216.053 1459.59,-198.058 1524,-180 1530.52,-178.172 1537.44,-176.096 1544.08,-174.039"/>
<polygon fill="black" stroke="black" points="1544.4,-173.941 1544.4,-173.941 1544.4,-173.941 1544.4,-173.941"/>
</g>
<!-- wind_2 -->
<g id="node21" class="node"><title>wind_2</title>
<ellipse fill="#f3fff3" stroke="grey" cx="1678" cy="-162" rx="37.0701" ry="18"/>
<text text-anchor="middle" x="1678" y="-158.3" font-family="Times,serif" font-size="14.00">wind_2</text>
</g>
<!-- Hub_2&#45;&gt;wind_2 -->
<g id="edge20" class="edge"><title>Hub_2&#45;&gt;wind_2</title>
<path fill="none" stroke="black" stroke-dasharray="5,2" d="M1344.22,-229.351C1403.92,-222.691 1528.48,-206.734 1631,-180 1637.12,-178.405 1643.56,-176.341 1649.64,-174.205"/>
<polygon fill="black" stroke="black" points="1649.93,-174.103 1649.93,-174.103 1649.93,-174.103 1649.93,-174.103"/>
</g>
<!-- electricity_3 -->
<g id="node25" class="node"><title>electricity_3</title>
<ellipse fill="#f3fff3" stroke="grey" cx="1411" cy="-18" rx="54.3924" ry="18"/>
<text text-anchor="middle" x="1411" y="-14.3" font-family="Times,serif" font-size="14.00">electricity_3</text>
</g>
<!-- electricity_2&#45;&gt;electricity_3 -->
<g id="edge87" class="edge"><title>electricity_2&#45;&gt;electricity_3</title>
<path fill="none" stroke="grey" d="M1023.08,-79.8842C1108.61,-66.4605 1267.51,-41.5204 1353,-28.1037"/>
<polygon fill="grey" stroke="grey" points="1022.49,-76.434 1013.15,-81.4423 1023.58,-83.3493 1022.49,-76.434"/>
<polygon fill="grey" stroke="grey" points="1363.05,-26.5261 1353.87,-32.5223 1358.11,-27.3014 1353.17,-28.0767 1353.17,-28.0767 1353.17,-28.0767 1358.11,-27.3014 1352.47,-23.6312 1363.05,-26.5261 1363.05,-26.5261"/>
</g>
<!-- City -->
<g id="node22" class="node"><title>City</title>
<polygon fill="#f3fff3" stroke="black" points="2722.03,-378 2707.01,-396 2676.99,-396 2661.97,-378 2676.99,-360 2707.01,-360 2722.03,-378"/>
<text text-anchor="middle" x="2692" y="-374.3" font-family="Helvetica,sans-Serif" font-size="14.00">City</text>
</g>
<!-- City&#45;&gt;District -->
<g id="edge21" class="edge"><title>City&#45;&gt;District</title>
<path fill="none" stroke="black" stroke-dasharray="5,2" d="M2663.75,-375.57C2488.88,-366.719 1554.8,-319.441 1349.09,-309.029"/>
<polygon fill="black" stroke="black" points="1348.79,-309.014 1348.79,-309.014 1348.79,-309.014 1348.79,-309.014"/>
</g>
<!-- District_2 -->
<g id="node43" class="node"><title>District_2</title>
<polygon fill="#f3fff3" stroke="black" points="2746.18,-306 2719.09,-324 2664.91,-324 2637.82,-306 2664.91,-288 2719.09,-288 2746.18,-306"/>
<text text-anchor="middle" x="2692" y="-302.3" font-family="Helvetica,sans-Serif" font-size="14.00">District_2</text>
</g>
<!-- City&#45;&gt;District_2 -->
<g id="edge22" class="edge"><title>City&#45;&gt;District_2</title>
<path fill="none" stroke="black" stroke-dasharray="5,2" d="M2692,-359.697C2692,-348.931 2692,-335.134 2692,-324.358"/>
<polygon fill="black" stroke="black" points="2692,-324.104 2692,-324.104 2692,-324.104 2692,-324.104"/>
</g>
<!-- Hub_3 -->
<g id="node23" class="node"><title>Hub_3</title>
<ellipse fill="#f3fff3" stroke="black" cx="2246" cy="-234" rx="36.096" ry="18"/>
<text text-anchor="middle" x="2246" y="-230.3" font-family="Helvetica,sans-Serif" font-size="14.00">Hub_3</text>
</g>
<!-- demand_3 -->
<g id="node24" class="node"><title>demand_3</title>
<ellipse fill="#f3fff3" stroke="grey" cx="1781" cy="-162" rx="48.1437" ry="18"/>
<text text-anchor="middle" x="1781" y="-158.3" font-family="Times,serif" font-size="14.00">demand_3</text>
</g>
<!-- Hub_3&#45;&gt;demand_3 -->
<g id="edge23" class="edge"><title>Hub_3&#45;&gt;demand_3</title>
<path fill="none" stroke="black" stroke-dasharray="5,2" d="M2210.69,-229.996C2140.27,-223.643 1977.54,-207.159 1843,-180 1834.82,-178.348 1826.12,-176.209 1817.91,-174.01"/>
<polygon fill="black" stroke="black" points="1817.52,-173.905 1817.52,-173.905 1817.52,-173.905 1817.52,-173.905"/>
</g>
<!-- Hub_3&#45;&gt;electricity_3 -->
<g id="edge24" class="edge"><title>Hub_3&#45;&gt;electricity_3</title>
<path fill="none" stroke="black" stroke-dasharray="5,2" d="M2210.23,-230.643C2129.32,-224.87 1934.71,-208.386 1876,-180 1855.05,-169.874 1858.17,-155.592 1838,-144 1713.17,-72.2669 1543.77,-38.7266 1460.86,-25.7897"/>
<polygon fill="black" stroke="black" points="1460.38,-25.714 1460.38,-25.714 1460.38,-25.714 1460.38,-25.714"/>
</g>
<!-- excess_bel_3 -->
<g id="node26" class="node"><title>excess_bel_3</title>
<ellipse fill="#f3fff3" stroke="grey" cx="1943" cy="-162" rx="57.2688" ry="18"/>
<text text-anchor="middle" x="1943" y="-158.3" font-family="Times,serif" font-size="14.00">excess_bel_3</text>
</g>
<!-- Hub_3&#45;&gt;excess_bel_3 -->
<g id="edge25" class="edge"><title>Hub_3&#45;&gt;excess_bel_3</title>
<path fill="none" stroke="black" stroke-dasharray="5,2" d="M2213.49,-225.995C2167.92,-216.11 2082.49,-197.334 2010,-180 2002.3,-178.159 1994.12,-176.139 1986.22,-174.153"/>
<polygon fill="black" stroke="black" points="1985.85,-174.059 1985.85,-174.059 1985.85,-174.059 1985.85,-174.059"/>
</g>
<!-- natural_gas_3 -->
<g id="node27" class="node"><title>natural_gas_3</title>
<ellipse fill="#f3fff3" stroke="grey" cx="2079" cy="-162" rx="59.1941" ry="18"/>
<text text-anchor="middle" x="2079" y="-158.3" font-family="Times,serif" font-size="14.00">natural_gas_3</text>
</g>
<!-- Hub_3&#45;&gt;natural_gas_3 -->
<g id="edge26" class="edge"><title>Hub_3&#45;&gt;natural_gas_3</title>
<path fill="none" stroke="black" stroke-dasharray="5,2" d="M2219.17,-221.753C2190.24,-209.627 2144.13,-190.298 2112.75,-177.148"/>
<polygon fill="black" stroke="black" points="2112.39,-176.994 2112.39,-176.994 2112.39,-176.994 2112.39,-176.994"/>
</g>
<!-- pp_gas_3 -->
<g id="node28" class="node"><title>pp_gas_3</title>
<ellipse fill="#f3fff3" stroke="grey" cx="2201" cy="-162" rx="44.2946" ry="18"/>
<text text-anchor="middle" x="2201" y="-158.3" font-family="Times,serif" font-size="14.00">pp_gas_3</text>
</g>
<!-- Hub_3&#45;&gt;pp_gas_3 -->
<g id="edge27" class="edge"><title>Hub_3&#45;&gt;pp_gas_3</title>
<path fill="none" stroke="black" stroke-dasharray="5,2" d="M2235.34,-216.411C2228.32,-205.5 2219.16,-191.252 2212.07,-180.216"/>
<polygon fill="black" stroke="black" points="2211.9,-179.956 2211.9,-179.956 2211.9,-179.956 2211.9,-179.956"/>
</g>
<!-- pv_3 -->
<g id="node29" class="node"><title>pv_3</title>
<ellipse fill="#f3fff3" stroke="grey" cx="2292" cy="-162" rx="28.3955" ry="18"/>
<text text-anchor="middle" x="2292" y="-158.3" font-family="Times,serif" font-size="14.00">pv_3</text>
</g>
<!-- Hub_3&#45;&gt;pv_3 -->
<g id="edge28" class="edge"><title>Hub_3&#45;&gt;pv_3</title>
<path fill="none" stroke="black" stroke-dasharray="5,2" d="M2256.67,-216.765C2264.04,-205.544 2273.82,-190.671 2281.21,-179.413"/>
<polygon fill="black" stroke="black" points="2281.39,-179.147 2281.39,-179.147 2281.39,-179.147 2281.39,-179.147"/>
</g>
<!-- rgas_3 -->
<g id="node30" class="node"><title>rgas_3</title>
<ellipse fill="#f3fff3" stroke="grey" cx="2373" cy="-162" rx="34.1708" ry="18"/>
<text text-anchor="middle" x="2373" y="-158.3" font-family="Times,serif" font-size="14.00">rgas_3</text>
</g>
<!-- Hub_3&#45;&gt;rgas_3 -->
<g id="edge29" class="edge"><title>Hub_3&#45;&gt;rgas_3</title>
<path fill="none" stroke="black" stroke-dasharray="5,2" d="M2269.29,-220.161C2292.26,-207.501 2327.15,-188.271 2350.01,-175.67"/>
<polygon fill="black" stroke="black" points="2350.28,-175.522 2350.28,-175.522 2350.28,-175.522 2350.28,-175.522"/>
</g>
<!-- storage_3 -->
<g id="node31" class="node"><title>storage_3</title>
<ellipse fill="#f3fff3" stroke="grey" cx="2470" cy="-162" rx="44.271" ry="18"/>
<text text-anchor="middle" x="2470" y="-158.3" font-family="Times,serif" font-size="14.00">storage_3</text>
</g>
<!-- Hub_3&#45;&gt;storage_3 -->
<g id="edge30" class="edge"><title>Hub_3&#45;&gt;storage_3</title>
<path fill="none" stroke="black" stroke-dasharray="5,2" d="M2275.8,-223.738C2309.74,-213.179 2366.88,-195.389 2416,-180 2422.37,-178.004 2429.16,-175.871 2435.7,-173.813"/>
<polygon fill="black" stroke="black" points="2436.01,-173.715 2436.01,-173.715 2436.01,-173.715 2436.01,-173.715"/>
</g>
<!-- wind_3 -->
<g id="node32" class="node"><title>wind_3</title>
<ellipse fill="#f3fff3" stroke="grey" cx="2570" cy="-162" rx="37.0701" ry="18"/>
<text text-anchor="middle" x="2570" y="-158.3" font-family="Times,serif" font-size="14.00">wind_3</text>
</g>
<!-- Hub_3&#45;&gt;wind_3 -->
<g id="edge31" class="edge"><title>Hub_3&#45;&gt;wind_3</title>
<path fill="none" stroke="black" stroke-dasharray="5,2" d="M2280.51,-228.191C2333.32,-220.433 2437.07,-203.602 2523,-180 2529.09,-178.326 2535.53,-176.228 2541.61,-174.083"/>
<polygon fill="black" stroke="black" points="2541.9,-173.981 2541.9,-173.981 2541.9,-173.981 2541.9,-173.981"/>
</g>
<!-- Hub_4 -->
<g id="node33" class="node"><title>Hub_4</title>
<ellipse fill="#f3fff3" stroke="black" cx="3121" cy="-234" rx="36.096" ry="18"/>
<text text-anchor="middle" x="3121" y="-230.3" font-family="Helvetica,sans-Serif" font-size="14.00">Hub_4</text>
</g>
<!-- demand_4 -->
<g id="node34" class="node"><title>demand_4</title>
<ellipse fill="#f3fff3" stroke="grey" cx="2673" cy="-162" rx="48.1437" ry="18"/>
<text text-anchor="middle" x="2673" y="-158.3" font-family="Times,serif" font-size="14.00">demand_4</text>
</g>
<!-- Hub_4&#45;&gt;demand_4 -->
<g id="edge32" class="edge"><title>Hub_4&#45;&gt;demand_4</title>
<path fill="none" stroke="black" stroke-dasharray="5,2" d="M3085.63,-230.059C3016.66,-223.917 2859.58,-207.928 2730,-180 2722.94,-178.479 2715.49,-176.522 2708.39,-174.48"/>
<polygon fill="black" stroke="black" points="2708.05,-174.382 2708.05,-174.382 2708.05,-174.382 2708.05,-174.382"/>
</g>
<!-- electricity_4 -->
<g id="node35" class="node"><title>electricity_4</title>
<ellipse fill="#f3fff3" stroke="grey" cx="2794" cy="-162" rx="54.3924" ry="18"/>
<text text-anchor="middle" x="2794" y="-158.3" font-family="Times,serif" font-size="14.00">electricity_4</text>
</g>
<!-- Hub_4&#45;&gt;electricity_4 -->
<g id="edge33" class="edge"><title>Hub_4&#45;&gt;electricity_4</title>
<path fill="none" stroke="black" stroke-dasharray="5,2" d="M3087.51,-227.003C3037.23,-217.838 2939.37,-199.36 2857,-180 2849.73,-178.29 2842.02,-176.333 2834.58,-174.37"/>
<polygon fill="black" stroke="black" points="2834.23,-174.276 2834.23,-174.276 2834.23,-174.276 2834.23,-174.276"/>
</g>
<!-- excess_bel_4 -->
<g id="node36" class="node"><title>excess_bel_4</title>
<ellipse fill="#f3fff3" stroke="grey" cx="2924" cy="-162" rx="57.2688" ry="18"/>
<text text-anchor="middle" x="2924" y="-158.3" font-family="Times,serif" font-size="14.00">excess_bel_4</text>
</g>
<!-- Hub_4&#45;&gt;excess_bel_4 -->
<g id="edge34" class="edge"><title>Hub_4&#45;&gt;excess_bel_4</title>
<path fill="none" stroke="black" stroke-dasharray="5,2" d="M3092.35,-222.821C3057.6,-210.47 2998.93,-189.623 2960.84,-176.089"/>
<polygon fill="black" stroke="black" points="2960.39,-175.93 2960.39,-175.93 2960.39,-175.93 2960.39,-175.93"/>
</g>
<!-- natural_gas_4 -->
<g id="node37" class="node"><title>natural_gas_4</title>
<ellipse fill="#f3fff3" stroke="grey" cx="3060" cy="-162" rx="59.1941" ry="18"/>
<text text-anchor="middle" x="3060" y="-158.3" font-family="Times,serif" font-size="14.00">natural_gas_4</text>
</g>
<!-- Hub_4&#45;&gt;natural_gas_4 -->
<g id="edge35" class="edge"><title>Hub_4&#45;&gt;natural_gas_4</title>
<path fill="none" stroke="black" stroke-dasharray="5,2" d="M3107.16,-217.116C3097.53,-206.07 3084.71,-191.359 3074.87,-180.064"/>
<polygon fill="black" stroke="black" points="3074.64,-179.797 3074.64,-179.797 3074.64,-179.797 3074.64,-179.797"/>
</g>
<!-- pp_gas_4 -->
<g id="node38" class="node"><title>pp_gas_4</title>
<ellipse fill="#f3fff3" stroke="grey" cx="3182" cy="-162" rx="44.2946" ry="18"/>
<text text-anchor="middle" x="3182" y="-158.3" font-family="Times,serif" font-size="14.00">pp_gas_4</text>
</g>
<!-- Hub_4&#45;&gt;pp_gas_4 -->
<g id="edge36" class="edge"><title>Hub_4&#45;&gt;pp_gas_4</title>
<path fill="none" stroke="black" stroke-dasharray="5,2" d="M3134.84,-217.116C3144.61,-205.91 3157.66,-190.932 3167.56,-179.575"/>
<polygon fill="black" stroke="black" points="3167.79,-179.307 3167.79,-179.307 3167.79,-179.307 3167.79,-179.307"/>
</g>
<!-- pv_4 -->
<g id="node39" class="node"><title>pv_4</title>
<ellipse fill="#f3fff3" stroke="grey" cx="3273" cy="-162" rx="28.3955" ry="18"/>
<text text-anchor="middle" x="3273" y="-158.3" font-family="Times,serif" font-size="14.00">pv_4</text>
</g>
<!-- Hub_4&#45;&gt;pv_4 -->
<g id="edge37" class="edge"><title>Hub_4&#45;&gt;pv_4</title>
<path fill="none" stroke="black" stroke-dasharray="5,2" d="M3146.78,-221.125C3175.81,-207.76 3222.51,-186.25 3250.24,-173.483"/>
<polygon fill="black" stroke="black" points="3250.56,-173.333 3250.56,-173.333 3250.56,-173.333 3250.56,-173.333"/>
</g>
<!-- rgas_4 -->
<g id="node40" class="node"><title>rgas_4</title>
<ellipse fill="#f3fff3" stroke="grey" cx="3354" cy="-162" rx="34.1708" ry="18"/>
<text text-anchor="middle" x="3354" y="-158.3" font-family="Times,serif" font-size="14.00">rgas_4</text>
</g>
<!-- Hub_4&#45;&gt;rgas_4 -->
<g id="edge38" class="edge"><title>Hub_4&#45;&gt;rgas_4</title>
<path fill="none" stroke="black" stroke-dasharray="5,2" d="M3152.71,-225.094C3190.49,-215.45 3255.35,-198.174 3310,-180 3315.66,-178.118 3321.66,-175.93 3327.35,-173.763"/>
<polygon fill="black" stroke="black" points="3327.62,-173.66 3327.62,-173.66 3327.62,-173.66 3327.62,-173.66"/>
</g>
<!-- storage_4 -->
<g id="node41" class="node"><title>storage_4</title>
<ellipse fill="#f3fff3" stroke="grey" cx="3451" cy="-162" rx="44.271" ry="18"/>
<text text-anchor="middle" x="3451" y="-158.3" font-family="Times,serif" font-size="14.00">storage_4</text>
</g>
<!-- Hub_4&#45;&gt;storage_4 -->
<g id="edge39" class="edge"><title>Hub_4&#45;&gt;storage_4</title>
<path fill="none" stroke="black" stroke-dasharray="5,2" d="M3155.27,-227.725C3207.72,-219.358 3310.9,-201.742 3397,-180 3403.66,-178.318 3410.71,-176.287 3417.44,-174.224"/>
<polygon fill="black" stroke="black" points="3417.76,-174.126 3417.76,-174.126 3417.76,-174.126 3417.76,-174.126"/>
</g>
<!-- wind_4 -->
<g id="node42" class="node"><title>wind_4</title>
<ellipse fill="#f3fff3" stroke="grey" cx="3551" cy="-162" rx="37.0701" ry="18"/>
<text text-anchor="middle" x="3551" y="-158.3" font-family="Times,serif" font-size="14.00">wind_4</text>
</g>
<!-- Hub_4&#45;&gt;wind_4 -->
<g id="edge40" class="edge"><title>Hub_4&#45;&gt;wind_4</title>
<path fill="none" stroke="black" stroke-dasharray="5,2" d="M3156.58,-230.578C3224.81,-225.385 3378.39,-211.043 3504,-180 3510.3,-178.443 3516.93,-176.344 3523.17,-174.153"/>
<polygon fill="black" stroke="black" points="3523.46,-174.048 3523.46,-174.048 3523.46,-174.048 3523.46,-174.048"/>
</g>
<!-- District_2&#45;&gt;Hub_3 -->
<g id="edge41" class="edge"><title>District_2&#45;&gt;Hub_3</title>
<path fill="none" stroke="black" stroke-dasharray="5,2" d="M2649.24,-298.288C2561.11,-284.456 2360.81,-253.019 2280.37,-240.395"/>
<polygon fill="black" stroke="black" points="2279.9,-240.321 2279.9,-240.321 2279.9,-240.321 2279.9,-240.321"/>
</g>
<!-- District_2&#45;&gt;Hub_4 -->
<g id="edge42" class="edge"><title>District_2&#45;&gt;Hub_4</title>
<path fill="none" stroke="black" stroke-dasharray="5,2" d="M2734.31,-298.097C2819.23,-284.241 3008.94,-253.286 3086.72,-240.593"/>
<polygon fill="black" stroke="black" points="3087.18,-240.519 3087.18,-240.519 3087.18,-240.519 3087.18,-240.519"/>
</g>
<!-- Multi_city -->
<g id="node44" class="node"><title>Multi_city</title>
<polygon fill="#f3fff3" stroke="black" points="3727.3,-450 3699.65,-468 3644.35,-468 3616.7,-450 3644.35,-432 3699.65,-432 3727.3,-450"/>
<text text-anchor="middle" x="3672" y="-446.3" font-family="Helvetica,sans-Serif" font-size="14.00">Multi_city</text>
</g>
<!-- Multi_city&#45;&gt;City -->
<g id="edge43" class="edge"><title>Multi_city&#45;&gt;City</title>
<path fill="none" stroke="black" stroke-dasharray="5,2" d="M3623.4,-445.529C3448.81,-433.058 2856.44,-390.746 2720.13,-381.009"/>
<polygon fill="black" stroke="black" points="2719.73,-380.981 2719.73,-380.981 2719.73,-380.981 2719.73,-380.981"/>
</g>
<!-- City_2 -->
<g id="node87" class="node"><title>City_2</title>
<polygon fill="#f3fff3" stroke="black" points="4677.92,-378 4657.46,-396 4616.54,-396 4596.08,-378 4616.54,-360 4657.46,-360 4677.92,-378"/>
<text text-anchor="middle" x="4637" y="-374.3" font-family="Helvetica,sans-Serif" font-size="14.00">City_2</text>
</g>
<!-- Multi_city&#45;&gt;City_2 -->
<g id="edge44" class="edge"><title>Multi_city&#45;&gt;City_2</title>
<path fill="none" stroke="black" stroke-dasharray="5,2" d="M3720.52,-445.481C3889.38,-433.232 4449.26,-392.618 4599.58,-381.714"/>
<polygon fill="black" stroke="black" points="4600.02,-381.683 4600.02,-381.683 4600.02,-381.683 4600.02,-381.683"/>
</g>
<!-- Hub_5 -->
<g id="node45" class="node"><title>Hub_5</title>
<ellipse fill="#f3fff3" stroke="black" cx="4208" cy="-234" rx="36.096" ry="18"/>
<text text-anchor="middle" x="4208" y="-230.3" font-family="Helvetica,sans-Serif" font-size="14.00">Hub_5</text>
</g>
<!-- demand_5 -->
<g id="node46" class="node"><title>demand_5</title>
<ellipse fill="#f3fff3" stroke="grey" cx="3654" cy="-162" rx="48.1437" ry="18"/>
<text text-anchor="middle" x="3654" y="-158.3" font-family="Times,serif" font-size="14.00">demand_5</text>
</g>
<!-- Hub_5&#45;&gt;demand_5 -->
<g id="edge45" class="edge"><title>Hub_5&#45;&gt;demand_5</title>
<path fill="none" stroke="black" stroke-dasharray="5,2" d="M4172.1,-231.434C4089.83,-227.353 3881.58,-214.231 3711,-180 3703.82,-178.56 3696.25,-176.614 3689.05,-174.553"/>
<polygon fill="black" stroke="black" points="3688.71,-174.455 3688.71,-174.455 3688.71,-174.455 3688.71,-174.455"/>
</g>
<!-- electricity_5 -->
<g id="node47" class="node"><title>electricity_5</title>
<ellipse fill="#f3fff3" stroke="grey" cx="3775" cy="-162" rx="54.3924" ry="18"/>
<text text-anchor="middle" x="3775" y="-158.3" font-family="Times,serif" font-size="14.00">electricity_5</text>
</g>
<!-- Hub_5&#45;&gt;electricity_5 -->
<g id="edge46" class="edge"><title>Hub_5&#45;&gt;electricity_5</title>
<path fill="none" stroke="black" stroke-dasharray="5,2" d="M4172.81,-229.399C4106.76,-222.322 3959.88,-205.076 3838,-180 3830.46,-178.449 3822.49,-176.525 3814.84,-174.534"/>
<polygon fill="black" stroke="black" points="3814.48,-174.439 3814.48,-174.439 3814.48,-174.439 3814.48,-174.439"/>
</g>
<!-- excess_bel_5 -->
<g id="node48" class="node"><title>excess_bel_5</title>
<ellipse fill="#f3fff3" stroke="grey" cx="3905" cy="-162" rx="57.2688" ry="18"/>
<text text-anchor="middle" x="3905" y="-158.3" font-family="Times,serif" font-size="14.00">excess_bel_5</text>
</g>
<!-- Hub_5&#45;&gt;excess_bel_5 -->
<g id="edge47" class="edge"><title>Hub_5&#45;&gt;excess_bel_5</title>
<path fill="none" stroke="black" stroke-dasharray="5,2" d="M4175.49,-225.995C4129.92,-216.11 4044.49,-197.334 3972,-180 3964.3,-178.159 3956.12,-176.139 3948.22,-174.153"/>
<polygon fill="black" stroke="black" points="3947.85,-174.059 3947.85,-174.059 3947.85,-174.059 3947.85,-174.059"/>
</g>
<!-- natural_gas_5 -->
<g id="node49" class="node"><title>natural_gas_5</title>
<ellipse fill="#f3fff3" stroke="grey" cx="4041" cy="-162" rx="59.1941" ry="18"/>
<text text-anchor="middle" x="4041" y="-158.3" font-family="Times,serif" font-size="14.00">natural_gas_5</text>
</g>
<!-- Hub_5&#45;&gt;natural_gas_5 -->
<g id="edge48" class="edge"><title>Hub_5&#45;&gt;natural_gas_5</title>
<path fill="none" stroke="black" stroke-dasharray="5,2" d="M4181.17,-221.753C4152.24,-209.627 4106.13,-190.298 4074.75,-177.148"/>
<polygon fill="black" stroke="black" points="4074.39,-176.994 4074.39,-176.994 4074.39,-176.994 4074.39,-176.994"/>
</g>
<!-- pp_gas_5 -->
<g id="node50" class="node"><title>pp_gas_5</title>
<ellipse fill="#f3fff3" stroke="grey" cx="4163" cy="-162" rx="44.2946" ry="18"/>
<text text-anchor="middle" x="4163" y="-158.3" font-family="Times,serif" font-size="14.00">pp_gas_5</text>
</g>
<!-- Hub_5&#45;&gt;pp_gas_5 -->
<g id="edge49" class="edge"><title>Hub_5&#45;&gt;pp_gas_5</title>
<path fill="none" stroke="black" stroke-dasharray="5,2" d="M4197.34,-216.411C4190.32,-205.5 4181.16,-191.252 4174.07,-180.216"/>
<polygon fill="black" stroke="black" points="4173.9,-179.956 4173.9,-179.956 4173.9,-179.956 4173.9,-179.956"/>
</g>
<!-- pv_5 -->
<g id="node51" class="node"><title>pv_5</title>
<ellipse fill="#f3fff3" stroke="grey" cx="4254" cy="-162" rx="28.3955" ry="18"/>
<text text-anchor="middle" x="4254" y="-158.3" font-family="Times,serif" font-size="14.00">pv_5</text>
</g>
<!-- Hub_5&#45;&gt;pv_5 -->
<g id="edge50" class="edge"><title>Hub_5&#45;&gt;pv_5</title>
<path fill="none" stroke="black" stroke-dasharray="5,2" d="M4218.67,-216.765C4226.04,-205.544 4235.82,-190.671 4243.21,-179.413"/>
<polygon fill="black" stroke="black" points="4243.39,-179.147 4243.39,-179.147 4243.39,-179.147 4243.39,-179.147"/>
</g>
<!-- rgas_5 -->
<g id="node52" class="node"><title>rgas_5</title>
<ellipse fill="#f3fff3" stroke="grey" cx="4335" cy="-162" rx="34.1708" ry="18"/>
<text text-anchor="middle" x="4335" y="-158.3" font-family="Times,serif" font-size="14.00">rgas_5</text>
</g>
<!-- Hub_5&#45;&gt;rgas_5 -->
<g id="edge51" class="edge"><title>Hub_5&#45;&gt;rgas_5</title>
<path fill="none" stroke="black" stroke-dasharray="5,2" d="M4231.29,-220.161C4254.26,-207.501 4289.15,-188.271 4312.01,-175.67"/>
<polygon fill="black" stroke="black" points="4312.28,-175.522 4312.28,-175.522 4312.28,-175.522 4312.28,-175.522"/>
</g>
<!-- storage_5 -->
<g id="node53" class="node"><title>storage_5</title>
<ellipse fill="#f3fff3" stroke="grey" cx="4432" cy="-162" rx="44.271" ry="18"/>
<text text-anchor="middle" x="4432" y="-158.3" font-family="Times,serif" font-size="14.00">storage_5</text>
</g>
<!-- Hub_5&#45;&gt;storage_5 -->
<g id="edge52" class="edge"><title>Hub_5&#45;&gt;storage_5</title>
<path fill="none" stroke="black" stroke-dasharray="5,2" d="M4237.8,-223.738C4271.74,-213.179 4328.88,-195.389 4378,-180 4384.37,-178.004 4391.16,-175.871 4397.7,-173.813"/>
<polygon fill="black" stroke="black" points="4398.01,-173.715 4398.01,-173.715 4398.01,-173.715 4398.01,-173.715"/>
</g>
<!-- wind_5 -->
<g id="node54" class="node"><title>wind_5</title>
<ellipse fill="#f3fff3" stroke="grey" cx="4532" cy="-162" rx="37.0701" ry="18"/>
<text text-anchor="middle" x="4532" y="-158.3" font-family="Times,serif" font-size="14.00">wind_5</text>
</g>
<!-- Hub_5&#45;&gt;wind_5 -->
<g id="edge53" class="edge"><title>Hub_5&#45;&gt;wind_5</title>
<path fill="none" stroke="black" stroke-dasharray="5,2" d="M4242.51,-228.191C4295.32,-220.433 4399.07,-203.602 4485,-180 4491.09,-178.326 4497.53,-176.228 4503.61,-174.083"/>
<polygon fill="black" stroke="black" points="4503.9,-173.981 4503.9,-173.981 4503.9,-173.981 4503.9,-173.981"/>
</g>
<!-- Hub_6 -->
<g id="node55" class="node"><title>Hub_6</title>
<ellipse fill="#f3fff3" stroke="black" cx="5083" cy="-234" rx="36.096" ry="18"/>
<text text-anchor="middle" x="5083" y="-230.3" font-family="Helvetica,sans-Serif" font-size="14.00">Hub_6</text>
</g>
<!-- demand_6 -->
<g id="node56" class="node"><title>demand_6</title>
<ellipse fill="#f3fff3" stroke="grey" cx="4635" cy="-162" rx="48.1437" ry="18"/>
<text text-anchor="middle" x="4635" y="-158.3" font-family="Times,serif" font-size="14.00">demand_6</text>
</g>
<!-- Hub_6&#45;&gt;demand_6 -->
<g id="edge54" class="edge"><title>Hub_6&#45;&gt;demand_6</title>
<path fill="none" stroke="black" stroke-dasharray="5,2" d="M5047.63,-230.059C4978.66,-223.917 4821.58,-207.928 4692,-180 4684.94,-178.479 4677.49,-176.522 4670.39,-174.48"/>
<polygon fill="black" stroke="black" points="4670.05,-174.382 4670.05,-174.382 4670.05,-174.382 4670.05,-174.382"/>
</g>
<!-- electricity_6 -->
<g id="node57" class="node"><title>electricity_6</title>
<ellipse fill="#f3fff3" stroke="grey" cx="4756" cy="-162" rx="54.3924" ry="18"/>
<text text-anchor="middle" x="4756" y="-158.3" font-family="Times,serif" font-size="14.00">electricity_6</text>
</g>
<!-- Hub_6&#45;&gt;electricity_6 -->
<g id="edge55" class="edge"><title>Hub_6&#45;&gt;electricity_6</title>
<path fill="none" stroke="black" stroke-dasharray="5,2" d="M5049.51,-227.003C4999.23,-217.838 4901.37,-199.36 4819,-180 4811.73,-178.29 4804.02,-176.333 4796.58,-174.37"/>
<polygon fill="black" stroke="black" points="4796.23,-174.276 4796.23,-174.276 4796.23,-174.276 4796.23,-174.276"/>
</g>
<!-- excess_bel_6 -->
<g id="node58" class="node"><title>excess_bel_6</title>
<ellipse fill="#f3fff3" stroke="grey" cx="4886" cy="-162" rx="57.2688" ry="18"/>
<text text-anchor="middle" x="4886" y="-158.3" font-family="Times,serif" font-size="14.00">excess_bel_6</text>
</g>
<!-- Hub_6&#45;&gt;excess_bel_6 -->
<g id="edge56" class="edge"><title>Hub_6&#45;&gt;excess_bel_6</title>
<path fill="none" stroke="black" stroke-dasharray="5,2" d="M5054.35,-222.821C5019.6,-210.47 4960.93,-189.623 4922.84,-176.089"/>
<polygon fill="black" stroke="black" points="4922.39,-175.93 4922.39,-175.93 4922.39,-175.93 4922.39,-175.93"/>
</g>
<!-- natural_gas_6 -->
<g id="node59" class="node"><title>natural_gas_6</title>
<ellipse fill="#f3fff3" stroke="grey" cx="5022" cy="-162" rx="59.1941" ry="18"/>
<text text-anchor="middle" x="5022" y="-158.3" font-family="Times,serif" font-size="14.00">natural_gas_6</text>
</g>
<!-- Hub_6&#45;&gt;natural_gas_6 -->
<g id="edge57" class="edge"><title>Hub_6&#45;&gt;natural_gas_6</title>
<path fill="none" stroke="black" stroke-dasharray="5,2" d="M5069.16,-217.116C5059.53,-206.07 5046.71,-191.359 5036.87,-180.064"/>
<polygon fill="black" stroke="black" points="5036.64,-179.797 5036.64,-179.797 5036.64,-179.797 5036.64,-179.797"/>
</g>
<!-- pp_gas_6 -->
<g id="node60" class="node"><title>pp_gas_6</title>
<ellipse fill="#f3fff3" stroke="grey" cx="5144" cy="-162" rx="44.2946" ry="18"/>
<text text-anchor="middle" x="5144" y="-158.3" font-family="Times,serif" font-size="14.00">pp_gas_6</text>
</g>
<!-- Hub_6&#45;&gt;pp_gas_6 -->
<g id="edge58" class="edge"><title>Hub_6&#45;&gt;pp_gas_6</title>
<path fill="none" stroke="black" stroke-dasharray="5,2" d="M5096.84,-217.116C5106.61,-205.91 5119.66,-190.932 5129.56,-179.575"/>
<polygon fill="black" stroke="black" points="5129.79,-179.307 5129.79,-179.307 5129.79,-179.307 5129.79,-179.307"/>
</g>
<!-- pv_6 -->
<g id="node61" class="node"><title>pv_6</title>
<ellipse fill="#f3fff3" stroke="grey" cx="5235" cy="-162" rx="28.3955" ry="18"/>
<text text-anchor="middle" x="5235" y="-158.3" font-family="Times,serif" font-size="14.00">pv_6</text>
</g>
<!-- Hub_6&#45;&gt;pv_6 -->
<g id="edge59" class="edge"><title>Hub_6&#45;&gt;pv_6</title>
<path fill="none" stroke="black" stroke-dasharray="5,2" d="M5108.78,-221.125C5137.81,-207.76 5184.51,-186.25 5212.24,-173.483"/>
<polygon fill="black" stroke="black" points="5212.56,-173.333 5212.56,-173.333 5212.56,-173.333 5212.56,-173.333"/>
</g>
<!-- rgas_6 -->
<g id="node62" class="node"><title>rgas_6</title>
<ellipse fill="#f3fff3" stroke="grey" cx="5316" cy="-162" rx="34.1708" ry="18"/>
<text text-anchor="middle" x="5316" y="-158.3" font-family="Times,serif" font-size="14.00">rgas_6</text>
</g>
<!-- Hub_6&#45;&gt;rgas_6 -->
<g id="edge60" class="edge"><title>Hub_6&#45;&gt;rgas_6</title>
<path fill="none" stroke="black" stroke-dasharray="5,2" d="M5114.71,-225.094C5152.49,-215.45 5217.35,-198.174 5272,-180 5277.66,-178.118 5283.66,-175.93 5289.35,-173.763"/>
<polygon fill="black" stroke="black" points="5289.62,-173.66 5289.62,-173.66 5289.62,-173.66 5289.62,-173.66"/>
</g>
<!-- storage_6 -->
<g id="node63" class="node"><title>storage_6</title>
<ellipse fill="#f3fff3" stroke="grey" cx="5413" cy="-162" rx="44.271" ry="18"/>
<text text-anchor="middle" x="5413" y="-158.3" font-family="Times,serif" font-size="14.00">storage_6</text>
</g>
<!-- Hub_6&#45;&gt;storage_6 -->
<g id="edge61" class="edge"><title>Hub_6&#45;&gt;storage_6</title>
<path fill="none" stroke="black" stroke-dasharray="5,2" d="M5117.27,-227.725C5169.72,-219.358 5272.9,-201.742 5359,-180 5365.66,-178.318 5372.71,-176.287 5379.44,-174.224"/>
<polygon fill="black" stroke="black" points="5379.76,-174.126 5379.76,-174.126 5379.76,-174.126 5379.76,-174.126"/>
</g>
<!-- wind_6 -->
<g id="node64" class="node"><title>wind_6</title>
<ellipse fill="#f3fff3" stroke="grey" cx="5513" cy="-162" rx="37.0701" ry="18"/>
<text text-anchor="middle" x="5513" y="-158.3" font-family="Times,serif" font-size="14.00">wind_6</text>
</g>
<!-- Hub_6&#45;&gt;wind_6 -->
<g id="edge62" class="edge"><title>Hub_6&#45;&gt;wind_6</title>
<path fill="none" stroke="black" stroke-dasharray="5,2" d="M5118.58,-230.578C5186.81,-225.385 5340.39,-211.043 5466,-180 5472.3,-178.443 5478.93,-176.344 5485.17,-174.153"/>
<polygon fill="black" stroke="black" points="5485.46,-174.048 5485.46,-174.048 5485.46,-174.048 5485.46,-174.048"/>
</g>
<!-- District_3 -->
<g id="node65" class="node"><title>District_3</title>
<polygon fill="#f3fff3" stroke="black" points="4691.18,-306 4664.09,-324 4609.91,-324 4582.82,-306 4609.91,-288 4664.09,-288 4691.18,-306"/>
<text text-anchor="middle" x="4637" y="-302.3" font-family="Helvetica,sans-Serif" font-size="14.00">District_3</text>
</g>
<!-- District_3&#45;&gt;Hub_5 -->
<g id="edge63" class="edge"><title>District_3&#45;&gt;Hub_5</title>
<path fill="none" stroke="black" stroke-dasharray="5,2" d="M4594.69,-298.097C4509.77,-284.241 4320.06,-253.286 4242.28,-240.593"/>
<polygon fill="black" stroke="black" points="4241.82,-240.519 4241.82,-240.519 4241.82,-240.519 4241.82,-240.519"/>
</g>
<!-- District_3&#45;&gt;Hub_6 -->
<g id="edge64" class="edge"><title>District_3&#45;&gt;Hub_6</title>
<path fill="none" stroke="black" stroke-dasharray="5,2" d="M4679.76,-298.288C4767.89,-284.456 4968.19,-253.019 5048.63,-240.395"/>
<polygon fill="black" stroke="black" points="5049.1,-240.321 5049.1,-240.321 5049.1,-240.321 5049.1,-240.321"/>
</g>
<!-- Hub_7 -->
<g id="node66" class="node"><title>Hub_7</title>
<ellipse fill="#f3fff3" stroke="black" cx="6125" cy="-234" rx="36.096" ry="18"/>
<text text-anchor="middle" x="6125" y="-230.3" font-family="Helvetica,sans-Serif" font-size="14.00">Hub_7</text>
</g>
<!-- demand_7 -->
<g id="node67" class="node"><title>demand_7</title>
<ellipse fill="#f3fff3" stroke="grey" cx="5616" cy="-162" rx="48.1437" ry="18"/>
<text text-anchor="middle" x="5616" y="-158.3" font-family="Times,serif" font-size="14.00">demand_7</text>
</g>
<!-- Hub_7&#45;&gt;demand_7 -->
<g id="edge65" class="edge"><title>Hub_7&#45;&gt;demand_7</title>
<path fill="none" stroke="black" stroke-dasharray="5,2" d="M6089.21,-230.916C6012.34,-225.98 5826.02,-211.543 5673,-180 5665.93,-178.543 5658.47,-176.614 5651.37,-174.58"/>
<polygon fill="black" stroke="black" points="5651.03,-174.483 5651.03,-174.483 5651.03,-174.483 5651.03,-174.483"/>
</g>
<!-- electricity_7 -->
<g id="node68" class="node"><title>electricity_7</title>
<ellipse fill="#f3fff3" stroke="grey" cx="5737" cy="-162" rx="54.3924" ry="18"/>
<text text-anchor="middle" x="5737" y="-158.3" font-family="Times,serif" font-size="14.00">electricity_7</text>
</g>
<!-- Hub_7&#45;&gt;electricity_7 -->
<g id="edge66" class="edge"><title>Hub_7&#45;&gt;electricity_7</title>
<path fill="none" stroke="black" stroke-dasharray="5,2" d="M6090.15,-228.505C6030.42,-220.536 5904.78,-202.619 5800,-180 5792.59,-178.4 5784.74,-176.474 5777.2,-174.503"/>
<polygon fill="black" stroke="black" points="5776.84,-174.409 5776.84,-174.409 5776.84,-174.409 5776.84,-174.409"/>
</g>
<!-- excess_bel_7 -->
<g id="node69" class="node"><title>excess_bel_7</title>
<ellipse fill="#f3fff3" stroke="grey" cx="5867" cy="-162" rx="57.2688" ry="18"/>
<text text-anchor="middle" x="5867" y="-158.3" font-family="Times,serif" font-size="14.00">excess_bel_7</text>
</g>
<!-- Hub_7&#45;&gt;excess_bel_7 -->
<g id="edge67" class="edge"><title>Hub_7&#45;&gt;excess_bel_7</title>
<path fill="none" stroke="black" stroke-dasharray="5,2" d="M6093.88,-224.556C6047.73,-212.036 5961.04,-188.515 5909.21,-174.453"/>
<polygon fill="black" stroke="black" points="5908.91,-174.37 5908.91,-174.37 5908.91,-174.37 5908.91,-174.37"/>
</g>
<!-- natural_gas_7 -->
<g id="node70" class="node"><title>natural_gas_7</title>
<ellipse fill="#f3fff3" stroke="grey" cx="6003" cy="-162" rx="59.1941" ry="18"/>
<text text-anchor="middle" x="6003" y="-158.3" font-family="Times,serif" font-size="14.00">natural_gas_7</text>
</g>
<!-- Hub_7&#45;&gt;natural_gas_7 -->
<g id="edge68" class="edge"><title>Hub_7&#45;&gt;natural_gas_7</title>
<path fill="none" stroke="black" stroke-dasharray="5,2" d="M6102.05,-219.834C6081.56,-208.078 6051.54,-190.85 6029.92,-178.447"/>
<polygon fill="black" stroke="black" points="6029.67,-178.301 6029.67,-178.301 6029.67,-178.301 6029.67,-178.301"/>
</g>
<!-- pp_gas_7 -->
<g id="node71" class="node"><title>pp_gas_7</title>
<ellipse fill="#f3fff3" stroke="grey" cx="6125" cy="-162" rx="44.2946" ry="18"/>
<text text-anchor="middle" x="6125" y="-158.3" font-family="Times,serif" font-size="14.00">pp_gas_7</text>
</g>
<!-- Hub_7&#45;&gt;pp_gas_7 -->
<g id="edge69" class="edge"><title>Hub_7&#45;&gt;pp_gas_7</title>
<path fill="none" stroke="black" stroke-dasharray="5,2" d="M6125,-215.697C6125,-204.931 6125,-191.134 6125,-180.358"/>
<polygon fill="black" stroke="black" points="6125,-180.104 6125,-180.104 6125,-180.104 6125,-180.104"/>
</g>
<!-- pv_7 -->
<g id="node72" class="node"><title>pv_7</title>
<ellipse fill="#f3fff3" stroke="grey" cx="6216" cy="-162" rx="28.3955" ry="18"/>
<text text-anchor="middle" x="6216" y="-158.3" font-family="Times,serif" font-size="14.00">pv_7</text>
</g>
<!-- Hub_7&#45;&gt;pv_7 -->
<g id="edge70" class="edge"><title>Hub_7&#45;&gt;pv_7</title>
<path fill="none" stroke="black" stroke-dasharray="5,2" d="M6143.86,-218.496C6159.87,-206.179 6182.68,-188.633 6198.34,-176.585"/>
<polygon fill="black" stroke="black" points="6198.71,-176.302 6198.71,-176.302 6198.71,-176.302 6198.71,-176.302"/>
</g>
<!-- rgas_7 -->
<g id="node73" class="node"><title>rgas_7</title>
<ellipse fill="#f3fff3" stroke="grey" cx="6297" cy="-162" rx="34.1708" ry="18"/>
<text text-anchor="middle" x="6297" y="-158.3" font-family="Times,serif" font-size="14.00">rgas_7</text>
</g>
<!-- Hub_7&#45;&gt;rgas_7 -->
<g id="edge71" class="edge"><title>Hub_7&#45;&gt;rgas_7</title>
<path fill="none" stroke="black" stroke-dasharray="5,2" d="M6152.25,-221.908C6184.62,-208.737 6238.24,-186.913 6270.34,-173.849"/>
<polygon fill="black" stroke="black" points="6270.72,-173.695 6270.72,-173.695 6270.72,-173.695 6270.72,-173.695"/>
</g>
<!-- storage_7 -->
<g id="node74" class="node"><title>storage_7</title>
<ellipse fill="#f3fff3" stroke="grey" cx="6394" cy="-162" rx="44.271" ry="18"/>
<text text-anchor="middle" x="6394" y="-158.3" font-family="Times,serif" font-size="14.00">storage_7</text>
</g>
<!-- Hub_7&#45;&gt;storage_7 -->
<g id="edge72" class="edge"><title>Hub_7&#45;&gt;storage_7</title>
<path fill="none" stroke="black" stroke-dasharray="5,2" d="M6157.22,-225.728C6199.41,-216.053 6275.59,-198.058 6340,-180 6346.52,-178.172 6353.44,-176.096 6360.08,-174.039"/>
<polygon fill="black" stroke="black" points="6360.4,-173.941 6360.4,-173.941 6360.4,-173.941 6360.4,-173.941"/>
</g>
<!-- wind_7 -->
<g id="node75" class="node"><title>wind_7</title>
<ellipse fill="#f3fff3" stroke="grey" cx="6494" cy="-162" rx="37.0701" ry="18"/>
<text text-anchor="middle" x="6494" y="-158.3" font-family="Times,serif" font-size="14.00">wind_7</text>
</g>
<!-- Hub_7&#45;&gt;wind_7 -->
<g id="edge73" class="edge"><title>Hub_7&#45;&gt;wind_7</title>
<path fill="none" stroke="black" stroke-dasharray="5,2" d="M6160.22,-229.351C6219.92,-222.691 6344.48,-206.734 6447,-180 6453.12,-178.405 6459.56,-176.341 6465.64,-174.205"/>
<polygon fill="black" stroke="black" points="6465.93,-174.103 6465.93,-174.103 6465.93,-174.103 6465.93,-174.103"/>
</g>
<!-- Hub_8 -->
<g id="node76" class="node"><title>Hub_8</title>
<ellipse fill="#f3fff3" stroke="black" cx="7045" cy="-234" rx="36.096" ry="18"/>
<text text-anchor="middle" x="7045" y="-230.3" font-family="Helvetica,sans-Serif" font-size="14.00">Hub_8</text>
</g>
<!-- demand_8 -->
<g id="node77" class="node"><title>demand_8</title>
<ellipse fill="#f3fff3" stroke="grey" cx="6597" cy="-162" rx="48.1437" ry="18"/>
<text text-anchor="middle" x="6597" y="-158.3" font-family="Times,serif" font-size="14.00">demand_8</text>
</g>
<!-- Hub_8&#45;&gt;demand_8 -->
<g id="edge74" class="edge"><title>Hub_8&#45;&gt;demand_8</title>
<path fill="none" stroke="black" stroke-dasharray="5,2" d="M7009.63,-230.059C6940.66,-223.917 6783.58,-207.928 6654,-180 6646.94,-178.479 6639.49,-176.522 6632.39,-174.48"/>
<polygon fill="black" stroke="black" points="6632.05,-174.382 6632.05,-174.382 6632.05,-174.382 6632.05,-174.382"/>
</g>
<!-- electricity_8 -->
<g id="node78" class="node"><title>electricity_8</title>
<ellipse fill="#f3fff3" stroke="grey" cx="6718" cy="-162" rx="54.3924" ry="18"/>
<text text-anchor="middle" x="6718" y="-158.3" font-family="Times,serif" font-size="14.00">electricity_8</text>
</g>
<!-- Hub_8&#45;&gt;electricity_8 -->
<g id="edge75" class="edge"><title>Hub_8&#45;&gt;electricity_8</title>
<path fill="none" stroke="black" stroke-dasharray="5,2" d="M7011.51,-227.003C6961.23,-217.838 6863.37,-199.36 6781,-180 6773.73,-178.29 6766.02,-176.333 6758.58,-174.37"/>
<polygon fill="black" stroke="black" points="6758.23,-174.276 6758.23,-174.276 6758.23,-174.276 6758.23,-174.276"/>
</g>
<!-- excess_bel_8 -->
<g id="node79" class="node"><title>excess_bel_8</title>
<ellipse fill="#f3fff3" stroke="grey" cx="6848" cy="-162" rx="57.2688" ry="18"/>
<text text-anchor="middle" x="6848" y="-158.3" font-family="Times,serif" font-size="14.00">excess_bel_8</text>
</g>
<!-- Hub_8&#45;&gt;excess_bel_8 -->
<g id="edge76" class="edge"><title>Hub_8&#45;&gt;excess_bel_8</title>
<path fill="none" stroke="black" stroke-dasharray="5,2" d="M7016.35,-222.821C6981.6,-210.47 6922.93,-189.623 6884.84,-176.089"/>
<polygon fill="black" stroke="black" points="6884.39,-175.93 6884.39,-175.93 6884.39,-175.93 6884.39,-175.93"/>
</g>
<!-- natural_gas_8 -->
<g id="node80" class="node"><title>natural_gas_8</title>
<ellipse fill="#f3fff3" stroke="grey" cx="6984" cy="-162" rx="59.1941" ry="18"/>
<text text-anchor="middle" x="6984" y="-158.3" font-family="Times,serif" font-size="14.00">natural_gas_8</text>
</g>
<!-- Hub_8&#45;&gt;natural_gas_8 -->
<g id="edge77" class="edge"><title>Hub_8&#45;&gt;natural_gas_8</title>
<path fill="none" stroke="black" stroke-dasharray="5,2" d="M7031.16,-217.116C7021.53,-206.07 7008.71,-191.359 6998.87,-180.064"/>
<polygon fill="black" stroke="black" points="6998.64,-179.797 6998.64,-179.797 6998.64,-179.797 6998.64,-179.797"/>
</g>
<!-- pp_gas_8 -->
<g id="node81" class="node"><title>pp_gas_8</title>
<ellipse fill="#f3fff3" stroke="grey" cx="7106" cy="-162" rx="44.2946" ry="18"/>
<text text-anchor="middle" x="7106" y="-158.3" font-family="Times,serif" font-size="14.00">pp_gas_8</text>
</g>
<!-- Hub_8&#45;&gt;pp_gas_8 -->
<g id="edge78" class="edge"><title>Hub_8&#45;&gt;pp_gas_8</title>
<path fill="none" stroke="black" stroke-dasharray="5,2" d="M7058.84,-217.116C7068.61,-205.91 7081.66,-190.932 7091.56,-179.575"/>
<polygon fill="black" stroke="black" points="7091.79,-179.307 7091.79,-179.307 7091.79,-179.307 7091.79,-179.307"/>
</g>
<!-- pv_8 -->
<g id="node82" class="node"><title>pv_8</title>
<ellipse fill="#f3fff3" stroke="grey" cx="7197" cy="-162" rx="28.3955" ry="18"/>
<text text-anchor="middle" x="7197" y="-158.3" font-family="Times,serif" font-size="14.00">pv_8</text>
</g>
<!-- Hub_8&#45;&gt;pv_8 -->
<g id="edge79" class="edge"><title>Hub_8&#45;&gt;pv_8</title>
<path fill="none" stroke="black" stroke-dasharray="5,2" d="M7070.78,-221.125C7099.81,-207.76 7146.51,-186.25 7174.24,-173.483"/>
<polygon fill="black" stroke="black" points="7174.56,-173.333 7174.56,-173.333 7174.56,-173.333 7174.56,-173.333"/>
</g>
<!-- rgas_8 -->
<g id="node83" class="node"><title>rgas_8</title>
<ellipse fill="#f3fff3" stroke="grey" cx="7278" cy="-162" rx="34.1708" ry="18"/>
<text text-anchor="middle" x="7278" y="-158.3" font-family="Times,serif" font-size="14.00">rgas_8</text>
</g>
<!-- Hub_8&#45;&gt;rgas_8 -->
<g id="edge80" class="edge"><title>Hub_8&#45;&gt;rgas_8</title>
<path fill="none" stroke="black" stroke-dasharray="5,2" d="M7076.71,-225.094C7114.49,-215.45 7179.35,-198.174 7234,-180 7239.66,-178.118 7245.66,-175.93 7251.35,-173.763"/>
<polygon fill="black" stroke="black" points="7251.62,-173.66 7251.62,-173.66 7251.62,-173.66 7251.62,-173.66"/>
</g>
<!-- storage_8 -->
<g id="node84" class="node"><title>storage_8</title>
<ellipse fill="#f3fff3" stroke="grey" cx="7375" cy="-162" rx="44.271" ry="18"/>
<text text-anchor="middle" x="7375" y="-158.3" font-family="Times,serif" font-size="14.00">storage_8</text>
</g>
<!-- Hub_8&#45;&gt;storage_8 -->
<g id="edge81" class="edge"><title>Hub_8&#45;&gt;storage_8</title>
<path fill="none" stroke="black" stroke-dasharray="5,2" d="M7079.27,-227.725C7131.72,-219.358 7234.9,-201.742 7321,-180 7327.66,-178.318 7334.71,-176.287 7341.44,-174.224"/>
<polygon fill="black" stroke="black" points="7341.76,-174.126 7341.76,-174.126 7341.76,-174.126 7341.76,-174.126"/>
</g>
<!-- wind_8 -->
<g id="node85" class="node"><title>wind_8</title>
<ellipse fill="#f3fff3" stroke="grey" cx="7475" cy="-162" rx="37.0701" ry="18"/>
<text text-anchor="middle" x="7475" y="-158.3" font-family="Times,serif" font-size="14.00">wind_8</text>
</g>
<!-- Hub_8&#45;&gt;wind_8 -->
<g id="edge82" class="edge"><title>Hub_8&#45;&gt;wind_8</title>
<path fill="none" stroke="black" stroke-dasharray="5,2" d="M7080.58,-230.578C7148.81,-225.385 7302.39,-211.043 7428,-180 7434.3,-178.443 7440.93,-176.344 7447.17,-174.153"/>
<polygon fill="black" stroke="black" points="7447.46,-174.048 7447.46,-174.048 7447.46,-174.048 7447.46,-174.048"/>
</g>
<!-- District_4 -->
<g id="node86" class="node"><title>District_4</title>
<polygon fill="#f3fff3" stroke="black" points="6179.18,-306 6152.09,-324 6097.91,-324 6070.82,-306 6097.91,-288 6152.09,-288 6179.18,-306"/>
<text text-anchor="middle" x="6125" y="-302.3" font-family="Helvetica,sans-Serif" font-size="14.00">District_4</text>
</g>
<!-- District_4&#45;&gt;Hub_7 -->
<g id="edge83" class="edge"><title>District_4&#45;&gt;Hub_7</title>
<path fill="none" stroke="black" stroke-dasharray="5,2" d="M6125,-287.697C6125,-276.931 6125,-263.134 6125,-252.358"/>
<polygon fill="black" stroke="black" points="6125,-252.104 6125,-252.104 6125,-252.104 6125,-252.104"/>
</g>
<!-- District_4&#45;&gt;Hub_8 -->
<g id="edge84" class="edge"><title>District_4&#45;&gt;Hub_8</title>
<path fill="none" stroke="black" stroke-dasharray="5,2" d="M6172.53,-301.384C6334.82,-289.036 6864.97,-248.698 7008.75,-237.758"/>
<polygon fill="black" stroke="black" points="7009.17,-237.726 7009.17,-237.726 7009.17,-237.726 7009.17,-237.726"/>
</g>
<!-- City_2&#45;&gt;District_3 -->
<g id="edge85" class="edge"><title>City_2&#45;&gt;District_3</title>
<path fill="none" stroke="black" stroke-dasharray="5,2" d="M4637,-359.697C4637,-348.931 4637,-335.134 4637,-324.358"/>
<polygon fill="black" stroke="black" points="4637,-324.104 4637,-324.104 4637,-324.104 4637,-324.104"/>
</g>
<!-- City_2&#45;&gt;District_4 -->
<g id="edge86" class="edge"><title>City_2&#45;&gt;District_4</title>
<path fill="none" stroke="black" stroke-dasharray="5,2" d="M4674.9,-375.217C4878.79,-365.625 5844.57,-320.192 6075.37,-309.335"/>
<polygon fill="black" stroke="black" points="6075.71,-309.319 6075.71,-309.319 6075.71,-309.319 6075.71,-309.319"/>
</g>
</g>
</svg>
